<?xml version="1.0" encoding="UTF-8" standalone="no"?>
<!-- Created with Inkscape (http://www.inkscape.org/) -->

<svg
   xmlns:dc="http://purl.org/dc/elements/1.1/"
   xmlns:cc="http://creativecommons.org/ns#"
   xmlns:rdf="http://www.w3.org/1999/02/22-rdf-syntax-ns#"
   xmlns:svg="http://www.w3.org/2000/svg"
   xmlns="http://www.w3.org/2000/svg"
   xmlns:xlink="http://www.w3.org/1999/xlink"
   xmlns:sodipodi="http://sodipodi.sourceforge.net/DTD/sodipodi-0.dtd"
   xmlns:inkscape="http://www.inkscape.org/namespaces/inkscape"
   width="794.66669"
   height="561.06665"
   viewBox="0 0 745.00001 526.00001"
   id="svg2"
   version="1.1"
   inkscape:version="0.92.2 5c3e80d, 2017-08-06"
   sodipodi:docname="009_soup_opera.svg"
   inkscape:export-filename="../preview/009_soup_opera.png"
   inkscape:export-xdpi="80"
   inkscape:export-ydpi="80">
  <title
     id="title14468">Soup opera</title>
  <defs
     id="defs4">
    <linearGradient
       inkscape:collect="always"
       id="linearGradient14414">
      <stop
         style="stop-color:#828282;stop-opacity:1"
         offset="0"
         id="stop14410" />
      <stop
         style="stop-color:#f9f9f9;stop-opacity:1"
         offset="1"
         id="stop14412" />
    </linearGradient>
    <linearGradient
       inkscape:collect="always"
       id="linearGradient14400">
      <stop
         style="stop-color:#2d2d2d;stop-opacity:1"
         offset="0"
         id="stop14396" />
      <stop
         style="stop-color:#666666;stop-opacity:1"
         offset="1"
         id="stop14398" />
    </linearGradient>
    <linearGradient
       id="linearGradient14394"
       inkscape:collect="always">
      <stop
         id="stop14390"
         offset="0"
         style="stop-color:#2d2d2d;stop-opacity:1" />
      <stop
         id="stop14392"
         offset="1"
         style="stop-color:#666666;stop-opacity:1" />
    </linearGradient>
    <linearGradient
       inkscape:collect="always"
       id="linearGradient14370">
      <stop
         style="stop-color:#aeaeae;stop-opacity:1"
         offset="0"
         id="stop14366" />
      <stop
         style="stop-color:#e6e6e6;stop-opacity:0.97787613"
         offset="1"
         id="stop14368" />
    </linearGradient>
    <linearGradient
       inkscape:collect="always"
       id="linearGradient14331">
      <stop
         style="stop-color:#3b3b3b;stop-opacity:1"
         offset="0"
         id="stop14327" />
      <stop
         style="stop-color:#1a1a1a;stop-opacity:0.99115044"
         offset="1"
         id="stop14329" />
    </linearGradient>
    <linearGradient
       inkscape:collect="always"
       id="linearGradient6559">
      <stop
         style="stop-color:#eccc4a;stop-opacity:1"
         offset="0"
         id="stop6561" />
      <stop
         style="stop-color:#ffdd55;stop-opacity:1"
         offset="1"
         id="stop6563" />
    </linearGradient>
    <radialGradient
       r="42.623158"
       fy="602.38318"
       fx="281.52054"
       cy="602.38318"
       cx="281.52054"
       gradientTransform="matrix(-0.56509397,0.14951692,0.03138806,0.11863004,260.89909,169.45842)"
       gradientUnits="userSpaceOnUse"
       id="radialGradient5283-74-2-6-9-7"
       xlink:href="#Patte"
       inkscape:collect="always" />
    <linearGradient
       id="Patte">
      <stop
         style="stop-color:#d35507;stop-opacity:1;"
         offset="0"
         id="stop5125" />
      <stop
         style="stop-color:#ffb380;stop-opacity:1;"
         offset="1"
         id="stop5127" />
    </linearGradient>
    <radialGradient
       inkscape:collect="always"
       xlink:href="#Patte"
       id="radialGradient5139-5-80-5-8-6-2"
       cx="372.45999"
       cy="587.44733"
       fx="372.45999"
       fy="587.44733"
       r="28.704195"
       gradientTransform="matrix(-0.74229214,0,0,0.17847441,355.51089,183.05983)"
       gradientUnits="userSpaceOnUse" />
    <radialGradient
       inkscape:collect="always"
       xlink:href="#Ventre"
       id="radialGradient5173-7-6-3-2-0-9"
       cx="315.72803"
       cy="479.27014"
       fx="315.72803"
       fy="479.27014"
       r="37.640732"
       gradientTransform="matrix(-0.88790789,5.0994203e-7,1.2900926e-7,0.2246301,377.52938,162.59743)"
       gradientUnits="userSpaceOnUse" />
    <linearGradient
       id="Ventre">
      <stop
         style="stop-color:#b4b4b4;stop-opacity:1;"
         offset="0"
         id="stop5165" />
      <stop
         style="stop-color:#ffffff;stop-opacity:1;"
         offset="1"
         id="stop5167" />
    </linearGradient>
    <linearGradient
       inkscape:collect="always"
       xlink:href="#linearGradient6559"
       id="linearGradient6565-6"
       x1="1083.2611"
       y1="1010.9656"
       x2="1083.2611"
       y2="990.78772"
       gradientUnits="userSpaceOnUse"
       gradientTransform="matrix(0.81701243,0,0,0.81701243,-263.92556,-431.60023)" />
    <linearGradient
       inkscape:collect="always"
       xlink:href="#linearGradient6559"
       id="linearGradient6565-3-2"
       x1="1083.2611"
       y1="1010.9656"
       x2="1083.2611"
       y2="990.78772"
       gradientUnits="userSpaceOnUse"
       gradientTransform="matrix(-1.0000001,0,0,1.0000001,1342.9609,-563.67896)" />
    <radialGradient
       r="42.623158"
       fy="602.38318"
       fx="281.52054"
       cy="602.38318"
       cx="281.52054"
       gradientTransform="matrix(-1.1832294,0.0210699,0.00442321,0.24839507,817.74671,252.57106)"
       gradientUnits="userSpaceOnUse"
       id="radialGradient5283-74-2-2-8-4"
       xlink:href="#Patte"
       inkscape:collect="always" />
    <radialGradient
       inkscape:collect="always"
       xlink:href="#Patte"
       id="radialGradient5139-5-80-5-4-7-5"
       cx="372.45999"
       cy="587.44733"
       fx="372.45999"
       fy="587.44733"
       r="28.704195"
       gradientTransform="matrix(-1.5027916,0,0,0.36132656,987.72091,197.71397)"
       gradientUnits="userSpaceOnUse" />
    <radialGradient
       inkscape:collect="always"
       xlink:href="#Ventre"
       id="radialGradient5173-7-6-3-22-2-9"
       cx="315.72803"
       cy="479.27014"
       fx="315.72803"
       fy="479.27014"
       r="37.640732"
       gradientTransform="matrix(-1.7975948,1.0323922e-6,2.6118293e-7,0.45477005,1032.2978,156.28726)"
       gradientUnits="userSpaceOnUse" />
    <radialGradient
       inkscape:collect="always"
       xlink:href="#linearGradient14331"
       id="radialGradient14335"
       gradientUnits="userSpaceOnUse"
       gradientTransform="matrix(0.48163911,-4.2566447e-7,3.8757441e-7,0.43854023,285.84207,162.42792)"
       cx="551.43469"
       cy="285.76743"
       fx="551.43469"
       fy="285.76743"
       r="5.1997242" />
    <radialGradient
       inkscape:collect="always"
       xlink:href="#linearGradient14331"
       id="radialGradient14335-4"
       gradientUnits="userSpaceOnUse"
       gradientTransform="matrix(0.36308671,0.31645577,-0.28813812,0.33059635,385.48071,15.488397)"
       cx="551.43469"
       cy="285.76743"
       fx="551.43469"
       fy="285.76743"
       r="5.1997242" />
    <linearGradient
       inkscape:collect="always"
       xlink:href="#linearGradient14370"
       id="linearGradient14372"
       x1="678.31311"
       y1="338.81561"
       x2="678.31311"
       y2="318.19061"
       gradientUnits="userSpaceOnUse" />
    <linearGradient
       inkscape:collect="always"
       xlink:href="#linearGradient14394"
       id="linearGradient14380"
       x1="638.133"
       y1="315.85114"
       x2="645.16425"
       y2="306.07074"
       gradientUnits="userSpaceOnUse" />
    <linearGradient
       inkscape:collect="always"
       xlink:href="#linearGradient14400"
       id="linearGradient14388"
       x1="678.71912"
       y1="307.10593"
       x2="679.00128"
       y2="297.26218"
       gradientUnits="userSpaceOnUse" />
    <linearGradient
       inkscape:collect="always"
       xlink:href="#linearGradient14400"
       id="linearGradient14408"
       x1="634.7204"
       y1="303.72739"
       x2="634.7204"
       y2="294.35239"
       gradientUnits="userSpaceOnUse" />
    <linearGradient
       inkscape:collect="always"
       xlink:href="#linearGradient14414"
       id="linearGradient14416"
       x1="527.2287"
       y1="328.98026"
       x2="528.75671"
       y2="314.22711"
       gradientUnits="userSpaceOnUse" />
  </defs>
  <sodipodi:namedview
     id="base"
     pagecolor="#ffffff"
     bordercolor="#666666"
     borderopacity="1.0"
     inkscape:pageopacity="1"
     inkscape:pageshadow="2"
     inkscape:zoom="1.42"
     inkscape:cx="254.08291"
     inkscape:cy="287.06157"
     inkscape:document-units="px"
     inkscape:current-layer="layer1"
     showgrid="false"
     borderlayer="true"
     inkscape:showpageshadow="false"
     showguides="false"
     units="px"
     guidetolerance="10"
     inkscape:snap-perpendicular="true"
     inkscape:snap-tangential="true"
     inkscape:pagecheckerboard="true">
    <sodipodi:guide
       position="0,476.00001"
       orientation="0,1"
       id="guide4136"
       inkscape:label=""
       inkscape:color="rgb(0,0,255)"
       inkscape:locked="false" />
    <sodipodi:guide
       position="715.00001,0"
       orientation="1,0"
       id="guide4138"
       inkscape:label=""
       inkscape:color="rgb(0,0,255)"
       inkscape:locked="false" />
    <sodipodi:guide
       position="0,50.000001"
       orientation="0,1"
       id="guide4140"
       inkscape:label=""
       inkscape:color="rgb(0,0,255)"
       inkscape:locked="false" />
    <sodipodi:guide
       position="30,0"
       orientation="1,0"
       id="guide4142"
       inkscape:label=""
       inkscape:color="rgb(0,0,255)"
       inkscape:locked="false" />
    <sodipodi:guide
       position="0,273.00001"
       orientation="0,1"
       id="guide4188"
       inkscape:label=""
       inkscape:color="rgb(0,0,255)"
       inkscape:locked="false" />
    <sodipodi:guide
       position="382.50001,0"
       orientation="1,0"
       id="guide4190"
       inkscape:label=""
       inkscape:color="rgb(0,0,255)"
       inkscape:locked="false" />
    <sodipodi:guide
       position="0,253"
       orientation="0,1"
       id="guide4192"
       inkscape:label=""
       inkscape:color="rgb(0,0,255)"
       inkscape:locked="false" />
    <sodipodi:guide
       position="362.5,0"
       orientation="1,0"
       id="guide4194"
       inkscape:label=""
       inkscape:color="rgb(0,0,255)"
       inkscape:locked="false" />
  </sodipodi:namedview>
  <metadata
     id="metadata7">
    <rdf:RDF>
      <cc:Work
         rdf:about="">
        <dc:format>image/svg+xml</dc:format>
        <dc:type
           rdf:resource="http://purl.org/dc/dcmitype/StillImage" />
        <dc:title>Soup opera</dc:title>
        <cc:license
           rdf:resource="http://artlibre.org/licence/lal" />
        <dc:date>24/02/2017</dc:date>
        <dc:creator>
          <cc:Agent>
            <dc:title>PacMiam</dc:title>
          </cc:Agent>
        </dc:creator>
        <dc:rights>
          <cc:Agent>
            <dc:title>Document sous licence Art Libre</dc:title>
          </cc:Agent>
        </dc:rights>
      </cc:Work>
      <cc:License
         rdf:about="http://artlibre.org/licence/lal">
        <cc:permits
           rdf:resource="http://creativecommons.org/ns#Reproduction" />
        <cc:permits
           rdf:resource="http://creativecommons.org/ns#Distribution" />
        <cc:permits
           rdf:resource="http://creativecommons.org/ns#DerivativeWorks" />
        <cc:requires
           rdf:resource="http://creativecommons.org/ns#ShareAlike" />
        <cc:requires
           rdf:resource="http://creativecommons.org/ns#Notice" />
        <cc:requires
           rdf:resource="http://creativecommons.org/ns#Attribution" />
      </cc:License>
    </rdf:RDF>
  </metadata>
  <g
     inkscape:label="Background"
     inkscape:groupmode="layer"
     id="layer1"
     transform="translate(0,-526.36218)"
     style="display:inline">
    <text
       xml:space="preserve"
       style="font-style:normal;font-variant:normal;font-weight:bold;font-stretch:normal;line-height:0%;font-family:'Liberation Sans';-inkscape-font-specification:'Liberation Sans Bold';text-align:start;writing-mode:lr-tb;text-anchor:start;opacity:1;fill:#1a1a1a;fill-opacity:1;fill-rule:nonzero;stroke:none;stroke-width:2;stroke-linecap:round;stroke-linejoin:round;stroke-miterlimit:4;stroke-dasharray:none;stroke-dashoffset:0;stroke-opacity:1"
       x="29.257048"
       y="563.51221"
       id="text4153"><tspan
         sodipodi:role="line"
         x="29.257048"
         y="563.51221"
         id="tspan4157"
         style="font-style:normal;font-variant:normal;font-weight:bold;font-stretch:normal;font-size:22.5px;line-height:1.25;font-family:'Liberation Sans';-inkscape-font-specification:'Liberation Sans Bold';fill:#1a1a1a">Soup opera</tspan></text>
    <text
       xml:space="preserve"
       style="font-style:italic;font-variant:normal;font-weight:500;font-stretch:normal;line-height:0%;font-family:'Fira Sans';-inkscape-font-specification:'Fira Sans Medium Italic';text-align:start;writing-mode:lr-tb;text-anchor:start;opacity:1;fill:#0088aa;fill-opacity:1;fill-rule:nonzero;stroke:none;stroke-width:2;stroke-linecap:round;stroke-linejoin:round;stroke-miterlimit:4;stroke-dasharray:none;stroke-dashoffset:0;stroke-opacity:1"
       x="715"
       y="551.36218"
       id="text4161"><tspan
         sodipodi:role="line"
         id="tspan4163"
         x="715"
         y="551.36218"
         style="font-size:17.5px;line-height:1.25"> </tspan></text>
    <text
       xml:space="preserve"
       style="font-style:normal;font-variant:normal;font-weight:normal;font-stretch:normal;line-height:0%;font-family:'Fira Sans';-inkscape-font-specification:'Fira Sans';text-align:end;writing-mode:lr-tb;text-anchor:end;opacity:1;fill:#1a1a1a;fill-opacity:1;fill-rule:nonzero;stroke:none;stroke-width:2;stroke-linecap:round;stroke-linejoin:round;stroke-miterlimit:4;stroke-dasharray:none;stroke-dashoffset:0;stroke-opacity:1"
       x="715"
       y="1023.7908"
       id="text4169"><tspan
         sodipodi:role="line"
         id="tspan4171"
         x="718.32031"
         y="1023.7908"
         style="font-size:12.5px;line-height:1.25"> </tspan><tspan
         sodipodi:role="line"
         x="715"
         y="1039.4158"
         id="tspan4173"
         style="font-size:12.5px;line-height:1.25">Licence Art Libre - http://artlibre.org/licence/lal</tspan></text>
    <text
       xml:space="preserve"
       style="font-style:italic;font-variant:normal;font-weight:500;font-stretch:normal;line-height:0%;font-family:'Fira Sans';-inkscape-font-specification:'Fira Sans Medium Italic';text-align:end;writing-mode:lr-tb;text-anchor:end;opacity:1;fill:#1a1a1a;fill-opacity:1;fill-rule:nonzero;stroke:none;stroke-width:2;stroke-linecap:round;stroke-linejoin:round;stroke-miterlimit:4;stroke-dasharray:none;stroke-dashoffset:0;stroke-opacity:1"
       x="715"
       y="1024.505"
       id="text4175"><tspan
         sodipodi:role="line"
         id="tspan4177"
         x="715"
         y="1024.505"
         style="font-size:15px;line-height:1.25">PacMiam</tspan></text>
    <rect
       style="opacity:1;fill:#ffffff;fill-opacity:1;fill-rule:nonzero;stroke:#000000;stroke-width:1;stroke-linecap:round;stroke-linejoin:round;stroke-miterlimit:4;stroke-dasharray:none;stroke-dashoffset:0;stroke-opacity:1"
       id="rect4179"
       width="332.49863"
       height="426.00122"
       x="30.006277"
       y="576.36218" />
    <rect
       style="opacity:1;fill:#ffffff;fill-opacity:1;fill-rule:nonzero;stroke:#000000;stroke-width:1;stroke-linecap:round;stroke-linejoin:round;stroke-miterlimit:4;stroke-dasharray:none;stroke-dashoffset:0;stroke-opacity:1"
       id="rect4181"
       width="332.49231"
       height="426.00208"
       x="382.51257"
       y="576.36218" />
    <text
       xml:space="preserve"
       style="font-style:normal;font-variant:normal;font-weight:bold;font-stretch:normal;line-height:0%;font-family:'Fira Sans';-inkscape-font-specification:'Fira Sans Bold';text-align:end;writing-mode:lr-tb;text-anchor:end;opacity:1;fill:#1a1a1a;fill-opacity:1;fill-rule:nonzero;stroke:none;stroke-width:2;stroke-linecap:round;stroke-linejoin:round;stroke-miterlimit:4;stroke-dasharray:none;stroke-dashoffset:0;stroke-opacity:1"
       x="713.5108"
       y="1000.1922"
       id="text4165"><tspan
         sodipodi:role="line"
         id="tspan4167"
         x="713.5108"
         y="1000.1922"
         style="font-style:normal;font-variant:normal;font-weight:bold;font-stretch:normal;font-size:10px;line-height:1.25;font-family:'Fira Sans';-inkscape-font-specification:'Fira Sans Bold'">9</tspan></text>
  </g>
  <g
     inkscape:groupmode="layer"
     id="layer2"
     inkscape:label="Personnages"
     style="display:inline">
    <ellipse
       ry="5.0673714"
       rx="67.771225"
       cy="405.58984"
       cx="457.96875"
       id="ellipse13813"
       style="opacity:1;fill:#000000;fill-opacity:0.2;fill-rule:evenodd;stroke:none;stroke-width:2.75095844;stroke-linecap:round;stroke-linejoin:round;stroke-miterlimit:4;stroke-dasharray:none;stroke-dashoffset:0;stroke-opacity:1" />
    <path
       style="fill:#333333;fill-opacity:1;fill-rule:evenodd;stroke:#000000;stroke-width:1.50852752;stroke-linecap:round;stroke-linejoin:round;stroke-miterlimit:4;stroke-dasharray:none;stroke-opacity:1"
       d="m 414.51635,369.00339 c 8.90309,10.54022 57.1936,12.30044 68.95389,0 12.27118,-12.48399 8.00972,-45.38919 0,-63.6205 -6.39656,-15.16779 -12.80987,-30.81721 -13.28329,-49.19341 0.85159,-22.35163 -38.2619,-24.45055 -39.05161,-1.52965 0.81546,13.62585 -9.06162,36.91408 -15.85707,56.43751 -5.98946,19.98988 -8.62717,33.29766 -2.23811,50.52489 -0.88115,-1.12635 -1.459,-4.27264 -1.99112,-4.71097 -3.36936,-2.77524 -2.24773,2.99444 -1.22049,5.63909 1.16322,2.99465 4.6878,6.45304 4.6878,6.45304 z"
       id="path10121-2-1-3"
       inkscape:connector-curvature="0"
       sodipodi:nodetypes="cccccccssc" />
    <path
       style="fill:url(#radialGradient5173-7-6-3-22-2-9);fill-opacity:1;stroke:#000000;stroke-width:0.37713188;stroke-miterlimit:4;stroke-dasharray:none;stroke-opacity:1"
       d="m 482.91282,367.49385 c 6.58931,-7.41034 7.14307,-16.46058 6.85808,-26.41747 -0.26792,-9.35996 -2.39728,-19.79618 -6.38283,-31.47509 -4.61659,-13.5282 -11.76785,-24.8276 -15.23091,-47.92813 -0.21413,-1.8962 -2.80049,-5.02294 -6.13097,-5.03928 -3.30049,-0.0162 -6.83646,0.89043 -7.14455,4.86836 -1.07242,45.73365 -29.12856,77.83911 -13.04315,105.69965 3.6344,6.29493 12.61513,8.27704 21.57147,7.83632 7.67821,-0.37782 15.79782,-3.13542 19.50286,-7.54436 z"
       id="path5075-9-7-0-9-5-8"
       inkscape:connector-curvature="0"
       sodipodi:nodetypes="csscsccsc" />
    <path
       style="fill:#333333;fill-opacity:1;fill-rule:evenodd;stroke:#000000;stroke-width:1.50852752;stroke-linecap:round;stroke-linejoin:round;stroke-miterlimit:4;stroke-dasharray:none;stroke-opacity:1"
       d="m 470.14983,256.00368 c 15.35643,-13.24757 22.70434,-32.89078 13.00235,-57.05275 8.23415,-6.63613 20.23649,-8.31907 33.9391,-2.28554 -3.68849,-23.27224 -31.67441,-24.42662 -46.19955,-15.26829 7.523,-8.8876 20.04352,-11.82542 37.4731,-6.75342 -10.13285,-24.45285 -58.94697,-20.117 -64.98389,1.48985 -18.67771,-15.22439 -47.08954,3.30262 -49.21338,7.21098 0,0 25.3975,-0.99192 31.85579,8.54394 -14.3222,15.63748 -12.88193,46.94445 5.22697,60.55719"
       id="path10119-0-9-8"
       inkscape:connector-curvature="0"
       sodipodi:nodetypes="ccccccccc" />
    <path
       style="fill:url(#radialGradient5139-5-80-5-4-7-5);fill-opacity:1;stroke:#7b451f;stroke-width:1.50852752;stroke-linecap:butt;stroke-linejoin:miter;stroke-miterlimit:4;stroke-dasharray:none;stroke-opacity:1"
       d="m 443.98885,404.34136 c 20.06141,-27.7749 -56.23453,-25.20309 -34.48056,0 2.3589,2.35889 31.7358,2.74477 34.48056,0 z"
       id="path5121-1-4-4-9-9-3"
       inkscape:connector-curvature="0"
       sodipodi:nodetypes="ccc" />
    <path
       sodipodi:nodetypes="cccc"
       inkscape:connector-curvature="0"
       id="path5119-2-0-2-0-82-9-9-0-1"
       d="m 458.38706,387.5168 c -10.85355,3.12831 -9.26606,14.78254 -0.83397,17.04186 5.8913,1.57858 57.19069,5.38395 57.19069,-6.69439 0,-19.7719 -42.21195,-14.40882 -56.35672,-10.34747 z"
       style="fill:url(#radialGradient5283-74-2-2-8-4);fill-opacity:1;stroke:#7b451f;stroke-width:1.50852752;stroke-linecap:butt;stroke-linejoin:miter;stroke-miterlimit:4;stroke-dasharray:none;stroke-opacity:1" />
    <path
       style="fill:#000000;stroke:#000000;stroke-width:0.75426376px;stroke-linecap:round;stroke-linejoin:round;stroke-opacity:1"
       d="m 483.74708,201.64253 c -3.75319,-3.11134 -7.80904,-4.48556 -12.78173,-0.59499 3.99545,-0.74058 8.24611,-0.57714 12.78173,0.59499 z"
       id="path5055-9-5-9-1-8"
       inkscape:connector-curvature="0"
       sodipodi:nodetypes="ccc" />
    <path
       style="fill:#000000;stroke:#000000;stroke-width:0.8496933px;stroke-linecap:round;stroke-linejoin:round;stroke-opacity:1"
       d="m 465.13393,200.98756 c -4.2281,-3.50499 -8.79703,-5.05307 -14.39885,-0.67027 4.5009,-0.83429 9.28946,-0.65015 14.39885,0.67027 z"
       id="path5055-6-4-97-3-7-9"
       inkscape:connector-curvature="0"
       sodipodi:nodetypes="ccc" />
    <path
       sodipodi:nodetypes="ccc"
       inkscape:connector-curvature="0"
       id="path13511-6"
       d="m 465.13393,217.30995 c -1.80536,-6.73754 -12.18443,-6.84669 -14.25297,-0.1233 2.10935,-6.72064 12.44308,-6.63132 14.25297,0.1233 z"
       style="fill:#000000;stroke:#000000;stroke-width:1.41424441;stroke-linecap:round;stroke-linejoin:round;stroke-miterlimit:4;stroke-dasharray:none;stroke-opacity:1" />
    <path
       style="fill:#000000;stroke:#000000;stroke-width:1.41424441;stroke-linecap:round;stroke-linejoin:round;stroke-miterlimit:4;stroke-dasharray:none;stroke-opacity:1"
       d="m 484.97068,217.30995 c -1.80535,-6.73754 -12.18442,-6.84669 -14.25297,-0.1233 2.10935,-6.72064 12.4431,-6.63132 14.25297,0.1233 z"
       id="path13513-4"
       inkscape:connector-curvature="0"
       sodipodi:nodetypes="ccc" />
    <g
       style="stroke:#7b451f;stroke-opacity:1"
       transform="matrix(-0.70712224,0,0,0.70712224,830.78481,142.71165)"
       id="g9194-6-9">
      <path
         style="fill:#ffffff;fill-opacity:1;stroke:#000000;stroke-width:1.06666672;stroke-opacity:1"
         d="m 489.29253,147.09284 c 3.21977,-6.77795 -0.79506,-15.54125 -3.10194,-15.72226 37.88026,-15.00558 28.686,27.41061 3.10194,15.72226 z"
         id="path5159-8-9-2-2-6-9-3-6"
         inkscape:connector-curvature="0"
         sodipodi:nodetypes="ccc" />
      <path
         style="fill:none;fill-rule:evenodd;stroke:#000000;stroke-width:0.53333336;stroke-linecap:round;stroke-linejoin:round;stroke-miterlimit:4;stroke-dasharray:none;stroke-opacity:1"
         d="m 493.15985,132.02036 c 1.97404,4.98311 1.9893,9.73576 0.71685,14.33692"
         id="path9149-1-2"
         inkscape:connector-curvature="0"
         sodipodi:nodetypes="cc" />
      <path
         style="fill:none;fill-rule:evenodd;stroke:#000000;stroke-width:0.53333336;stroke-linecap:round;stroke-linejoin:round;stroke-miterlimit:4;stroke-dasharray:none;stroke-opacity:1"
         d="m 499.15664,131.40234 c 1.97404,4.9831 1.9893,9.73575 0.71685,14.33691"
         id="path9149-3-7-1"
         inkscape:connector-curvature="0"
         sodipodi:nodetypes="cc" />
      <path
         style="fill:none;fill-rule:evenodd;stroke:#000000;stroke-width:0.53333336;stroke-linecap:round;stroke-linejoin:round;stroke-miterlimit:4;stroke-dasharray:none;stroke-opacity:1"
         d="m 504.8914,129.96865 c 1.97404,4.9831 1.9893,9.73576 0.71686,14.33692"
         id="path9149-6-5-7"
         inkscape:connector-curvature="0"
         sodipodi:nodetypes="cc" />
    </g>
    <path
       sodipodi:nodetypes="ccccccc"
       inkscape:connector-curvature="0"
       id="path13962-8"
       d="m 473.76484,234.61537 c 1.58848,1.94654 10.84245,4.35632 34.73668,4.35632 13.6254,0 12.38886,-9.81641 0.0938,-9.81641 -9.59996,0 -17.06505,-2.39446 -32.55287,-7.5433 -15.1061,-5.08165 -23.85843,29.11792 0.23958,29.11792 9.35572,0 10.92857,-3.3971 12.97484,-6.94142 -25.89905,6.93962 -18.31863,-11.97008 -15.49206,-9.17311 z"
       style="fill:#ffb380;stroke:#7b451f;stroke-width:1.50852752;stroke-linecap:round;stroke-linejoin:round;stroke-miterlimit:4;stroke-dasharray:none;stroke-opacity:1" />
    <path
       style="fill:#333333;fill-opacity:1;stroke:#010100;stroke-width:1.41424441;stroke-linecap:round;stroke-linejoin:round;stroke-miterlimit:4;stroke-dasharray:none;stroke-opacity:1"
       d="m 449.68253,272.99999 c -19.8089,50.75916 -26.87008,77.81076 -36.83527,74.51012 -7.87374,-2.60786 3.01728,-29.87075 19.70233,-91.43603"
       id="path5035-8-8-6-9-4-3"
       inkscape:connector-curvature="0"
       sodipodi:nodetypes="csc"
       inkscape:export-filename="/home/pacmiam/images/work/blog/camille.png"
       inkscape:export-xdpi="100"
       inkscape:export-ydpi="100" />
    <ellipse
       style="opacity:1;fill:#000000;fill-opacity:0.2;fill-rule:evenodd;stroke:none;stroke-width:2.67545366;stroke-linecap:round;stroke-linejoin:round;stroke-miterlimit:4;stroke-dasharray:none;stroke-dashoffset:0;stroke-opacity:1"
       id="path13119-5-8"
       cx="609.14062"
       cy="406"
       rx="74.09935"
       ry="5.0797319" />
    <path
       style="opacity:1;fill:#000000;fill-opacity:0.1;fill-rule:evenodd;stroke:none;stroke-width:0.9375;stroke-linecap:round;stroke-linejoin:round;stroke-miterlimit:4;stroke-dasharray:none;stroke-dashoffset:0;stroke-opacity:1"
       d="m 485.50697,421.60529 h 228.88706 l 0.17506,22.515 H 438.43646 Z"
       id="rect13795"
       inkscape:connector-curvature="0"
       sodipodi:nodetypes="ccccc" />
    <ellipse
       style="opacity:1;fill:#000000;fill-opacity:0.2;fill-rule:evenodd;stroke:none;stroke-width:2.41821122;stroke-linecap:round;stroke-linejoin:round;stroke-miterlimit:4;stroke-dasharray:none;stroke-dashoffset:0;stroke-opacity:1"
       id="path13119-5"
       cx="275.06754"
       cy="461.19611"
       rx="83.708733"
       ry="9.0641079" />
    <ellipse
       style="opacity:1;fill:#000000;fill-opacity:0.2;fill-rule:evenodd;stroke:none;stroke-width:0.91925895;stroke-linecap:round;stroke-linejoin:round;stroke-miterlimit:4;stroke-dasharray:none;stroke-dashoffset:0;stroke-opacity:1"
       id="path13119"
       cx="94.713638"
       cy="285.16672"
       rx="41.349174"
       ry="2.6516504" />
    <path
       style="fill:#333333;fill-opacity:1;stroke:#000000;stroke-width:0.69855499;stroke-linecap:round;stroke-linejoin:round;stroke-miterlimit:4;stroke-dasharray:none;stroke-opacity:1"
       d="m 92.391147,216.12421 c 9.784443,-25.07209 18.027293,-36.84901 22.949523,-35.21869 3.88917,1.28814 -6.2454,13.16943 -14.48685,43.57912"
       id="path5035-8-8-6-9-6"
       inkscape:connector-curvature="0"
       sodipodi:nodetypes="csc"
       inkscape:export-filename="/home/pacmiam/images/work/blog/camille.png"
       inkscape:export-xdpi="100"
       inkscape:export-ydpi="100" />
    <path
       style="fill:#333333;fill-opacity:1;fill-rule:evenodd;stroke:#000000;stroke-width:0.69855499;stroke-linecap:round;stroke-linejoin:round;stroke-miterlimit:4;stroke-dasharray:none;stroke-opacity:1"
       d="m 72.381027,267.66691 c 4.39762,5.20626 28.250343,6.07572 34.059273,0 6.06126,-6.16636 3.95631,-22.41964 0,-31.42484 -3.15955,-7.49201 -6.32737,-15.22194 -6.561213,-24.29872 0.420643,-11.04041 -18.89922,-12.07717 -19.2893,-0.75555 0.40283,6.73037 -4.47585,18.23343 -7.8324,27.87687 -2.95846,9.87384 -4.26133,16.4471 -1.1055,24.95638 -0.43524,-0.55641 -0.72067,-2.11048 -0.98354,-2.32696 -1.66423,-1.37081 -1.11021,1.47909 -0.60282,2.78538 0.57457,1.47919 2.3155,3.18744 2.3155,3.18744 z"
       id="path10121-0-4-7"
       inkscape:connector-curvature="0"
       sodipodi:nodetypes="cccccccssc" />
    <path
       style="fill:url(#radialGradient5173-7-6-3-2-0-9);fill-opacity:1;stroke:#000000;stroke-width:0.17463875;stroke-miterlimit:4;stroke-dasharray:none;stroke-opacity:1"
       d="m 106.16493,266.92124 c 3.25475,-3.66026 3.52827,-8.13053 3.38747,-13.04866 -0.1323,-4.62328 -1.18408,-9.77816 -3.15271,-15.5469 -2.28036,-6.68213 -5.81264,-12.26338 -7.523203,-23.67371 -0.10576,-0.93663 -1.38327,-2.48103 -3.02833,-2.48913 -1.63026,-0.008 -3.37686,0.43985 -3.529,2.4047 -0.52971,22.5898 -14.38782,38.44805 -6.44256,52.20951 1.79518,3.10931 6.2311,4.08836 10.65502,3.8707 3.792603,-0.18662 7.803243,-1.54874 9.633313,-3.72651 z"
       id="path5075-9-7-0-2-8-8"
       inkscape:connector-curvature="0"
       sodipodi:nodetypes="csscsccsc" />
    <path
       style="fill:#333333;fill-opacity:1;fill-rule:evenodd;stroke:#000000;stroke-width:0.69855499;stroke-linecap:round;stroke-linejoin:round;stroke-miterlimit:4;stroke-dasharray:none;stroke-opacity:1"
       d="m 99.880667,211.80689 c 7.031763,-7.1349 9.865583,-17.09899 4.124793,-28.60751 3.7891,-3.5957 9.63105,-4.90317 16.61796,-2.47946 -2.74459,-11.31039 -16.56886,-10.76204 -23.354583,-5.67357 3.349113,-4.67579 9.396123,-6.62175 18.179623,-4.82013 -5.96441,-11.6345 -29.823973,-7.55207 -31.933993,3.32645 -9.80303,-6.75011 -23.051726,3.50492 -23.941404,5.51386 0,0 12.464344,-1.50175 16.024434,2.93533 -6.42726,8.27024 -4.46897,23.62607 4.9897,29.60542"
       id="path10119-7-7-4"
       inkscape:connector-curvature="0"
       sodipodi:nodetypes="ccccccccc" />
    <ellipse
       style="fill:#ffffff;fill-opacity:1;stroke:none;stroke-width:0.17463875;stroke-miterlimit:4;stroke-dasharray:none;stroke-opacity:1"
       id="path4957-7-915-6-4"
       cx="-101.37617"
       cy="190.96919"
       rx="4.091536"
       ry="6.223362"
       transform="scale(-1,1)" />
    <path
       style="fill:url(#radialGradient5139-5-80-5-8-6-2);fill-opacity:1;stroke:#7b451f;stroke-width:0.69855499;stroke-linecap:butt;stroke-linejoin:miter;stroke-miterlimit:4;stroke-dasharray:none;stroke-opacity:1"
       d="m 86.938737,285.12184 c 9.90919,-13.71924 -27.776599,-12.44888 -17.03139,0 1.16516,1.16516 15.67564,1.35576 17.03139,0 z"
       id="path5121-1-4-4-0-3-5"
       inkscape:connector-curvature="0"
       sodipodi:nodetypes="ccc" />
    <path
       sodipodi:nodetypes="cccc"
       inkscape:connector-curvature="0"
       id="path5119-2-0-2-0-82-9-7-9-0"
       d="m 104.41953,276.5301 c -4.837703,2.77934 -2.70306,8.18266 1.60786,8.27295 3.01193,0.0631 28.06784,-4.1557 26.64471,-9.94948 -2.32954,-9.48428 -21.94606,-1.93821 -28.25257,1.67653 z"
       style="fill:url(#radialGradient5283-74-2-6-9-7);fill-opacity:1;stroke:#7b451f;stroke-width:0.69855499;stroke-linecap:butt;stroke-linejoin:miter;stroke-miterlimit:4;stroke-dasharray:none;stroke-opacity:1" />
    <path
       sodipodi:nodetypes="ccc"
       inkscape:connector-curvature="0"
       id="path5159-8-9-2-2-6-7-3"
       d="m 103.97591,206.9869 c -1.12456,-2.36737 0.27771,-5.42819 1.08346,-5.49145 -13.230743,-5.24109 -10.019383,9.57394 -1.08346,5.49145 z"
       style="fill:#1a1a1a;stroke:#000000;stroke-width:0.37256268;stroke-opacity:1" />
    <ellipse
       transform="scale(-1,1)"
       id="path4957-4-6-3-1-7"
       style="fill:#ffffff;fill-opacity:1;stroke:none;stroke-width:0.17463875;stroke-miterlimit:4;stroke-dasharray:none;stroke-opacity:1"
       cx="-91.662903"
       cy="190.8885"
       rx="4.2227545"
       ry="6.4229488" />
    <path
       style="fill:#333333;stroke:#000000;stroke-width:0.69855499;stroke-linecap:butt;stroke-linejoin:miter;stroke-miterlimit:4;stroke-dasharray:none;stroke-opacity:1"
       d="m 88.130237,222.06684 c -4.49841,6.88717 -3.58775,7.19848 -10.83228,15.93422 2.67148,7.62878 3.20713,7.48264 4.89774,11.70813 -4.52364,4.38081 -9.91899,5.57932 -7.79245,1.71006 -2.21558,-1.69637 -10.073128,-9.88158 -7.06784,-17.01397 3.5225,-7.76175 8.77829,-13.30041 13.21963,-19.90221"
       id="path4002-3-8-7-0-9-1"
       inkscape:connector-curvature="0"
       sodipodi:nodetypes="cccccc" />
    <path
       style="fill:#333333;fill-opacity:1;fill-rule:evenodd;stroke:#000000;stroke-width:0.69855499;stroke-linecap:round;stroke-linejoin:round;stroke-miterlimit:4;stroke-dasharray:none;stroke-opacity:1"
       d="m 83.657697,249.64688 c -5.40587,-1.4917 -13.04771,0.10332 -10.95097,8.06908"
       id="path15561-0"
       inkscape:connector-curvature="0"
       sodipodi:nodetypes="cc" />
    <path
       style="fill:none;fill-rule:evenodd;stroke:#000000;stroke-width:0.17463875;stroke-linecap:round;stroke-linejoin:round;stroke-miterlimit:4;stroke-dasharray:none;stroke-opacity:1"
       d="m 74.565097,254.19269 c 1.16778,3.56515 5.1398,1.48838 7.71631,1.35848"
       id="path15563-6"
       inkscape:connector-curvature="0"
       sodipodi:nodetypes="cc" />
    <ellipse
       style="fill:#000000;fill-opacity:1;stroke:none;stroke-width:0.37256268"
       id="path4977-4-9-0-5-3"
       cx="93.831352"
       cy="191.34094"
       rx="1.3507593"
       ry="2.1855745" />
    <path
       sodipodi:nodetypes="ccc"
       inkscape:connector-curvature="0"
       id="path5055-9-7-2-4-2"
       d="m 88.460577,182.39038 c 1.92334,-1.44896 3.95606,-2.03385 6.32029,0 -1.95442,-0.45718 -4.05546,-0.47416 -6.32029,0 z"
       style="fill:#000000;stroke:#000000;stroke-width:0.37256268px;stroke-linecap:round;stroke-linejoin:round;stroke-opacity:1" />
    <ellipse
       style="fill:#000000;fill-opacity:1;stroke:none;stroke-width:0.37256268"
       id="path4977-4-9-6-4-2-6"
       transform="scale(-1,1)"
       cx="-99.537193"
       cy="191.28198"
       rx="1.3507593"
       ry="2.1855745" />
    <path
       sodipodi:nodetypes="ccc"
       inkscape:connector-curvature="0"
       id="path5055-9-7-1-3-5-1"
       d="m 104.30486,182.38575 c -1.92336,-1.44896 -3.95606,-2.03386 -6.320283,0 1.95435,-0.45718 4.055463,-0.47417 6.320283,0 z"
       style="fill:#000000;stroke:#000000;stroke-width:0.37256268px;stroke-linecap:round;stroke-linejoin:round;stroke-opacity:1" />
    <path
       style="fill:#c83737;stroke:#501616;stroke-width:0.37256268;stroke-opacity:1"
       d="m 104.08387,207.18092 c -3.53895,1.46979 -8.973083,0.93599 -7.919513,-2.6041 3.65857,-0.68414 7.367863,0.54532 7.919513,2.6041 z"
       id="path5161-5-5-1-7-7-8-5"
       inkscape:connector-curvature="0"
       sodipodi:nodetypes="ccc" />
    <path
       style="fill:#ffb380;stroke:#7b451f;stroke-width:0.69855499;stroke-linecap:round;stroke-linejoin:round;stroke-miterlimit:4;stroke-dasharray:none;stroke-opacity:1"
       d="m 96.496227,203.37956 c 0.25009,-1.54063 0.72769,-3.02517 1.36925,-2.70701 3.682603,1.82613 5.669223,2.7585 17.171013,2.75965 6.73015,0 6.11933,-4.84875 0.0463,-4.84875 -4.74182,0 -8.42914,-1.18276 -16.079233,-3.72596 -7.46155,-2.51005 -11.78473,14.38256 0.11834,14.38256 4.621173,0 5.398043,-1.67797 6.408823,-3.42865 -2.39046,1.67765 -4.81671,1.55701 -6.507673,1.44067 -2.23782,-0.154 -3.31161,-0.94378 -2.52686,-3.87251 z"
       id="path4955-9-4-2-7-1-0-35-01-5"
       inkscape:connector-curvature="0"
       sodipodi:nodetypes="cscccccscc" />
    <path
       inkscape:export-ydpi="100"
       inkscape:export-xdpi="100"
       inkscape:export-filename="/home/pacmiam/images/work/blog/camille.png"
       sodipodi:nodetypes="csc"
       inkscape:connector-curvature="0"
       id="path13276"
       d="m 619.87925,288.3965 c -21.45684,54.9819 -29.10545,84.28398 -39.89967,80.70876 -8.52877,-2.82482 3.26831,-32.35576 21.34141,-99.04278"
       style="fill:#ffdd55;fill-opacity:1;stroke:#ffc400;stroke-width:1.53189826;stroke-linecap:round;stroke-linejoin:round;stroke-miterlimit:4;stroke-dasharray:none;stroke-opacity:1" />
    <path
       style="fill:#ffdd55;fill-opacity:1;fill-rule:evenodd;stroke:#ffc400;stroke-width:1.53189826;stroke-linecap:round;stroke-linejoin:round;stroke-miterlimit:4;stroke-dasharray:none;stroke-opacity:1"
       d="m 626.67851,360.78736 c 1.53404,7.84209 13.12293,11.48166 19.52152,10.01846 13.28676,-3.02894 32.57474,-30.16147 25.25158,-36.09796 -4.83759,-3.92155 -9.21039,-1.1862 -9.21039,-1.1862 3.51548,-3.5155 6.67187,-6.72554 -0.89494,-11.09424 -10.97842,-6.33838 -12.90731,6.93196 -12.90731,6.93196 0,0 1.06804,-4.78712 -4.53549,-6.51308 -16.626,-5.121 -18.52034,28.38791 -17.22497,37.94106 z"
       id="path6474-7"
       inkscape:connector-curvature="0"
       sodipodi:nodetypes="ccscsccc"
       inkscape:export-filename="/home/pacmiam/images/work/blog/camille.png"
       inkscape:export-xdpi="100"
       inkscape:export-ydpi="100" />
    <g
       id="g6492-4"
       transform="matrix(0.76594917,0,0,0.76594917,-263.92557,-444.7266)"
       inkscape:export-filename="/home/pacmiam/images/work/blog/camille.png"
       inkscape:export-xdpi="100"
       inkscape:export-ydpi="100"
       style="stroke-width:2;stroke-miterlimit:4;stroke-dasharray:none">
      <path
         id="path11506-52"
         d="m 1169.6771,1068.9925 v 27.9876 c -2.9644,0.5758 -5.7354,1.5558 -8.0708,2.9042 -8.0486,4.6469 -11.0224,14.1729 -0.3688,14.1729 9.9565,0 17.6391,-0.1917 29.1813,-0.1917 9.8946,0 9.4417,-8.3586 -0.1563,-13.9 -2.6554,-1.5331 -5.6495,-2.5452 -8.7438,-3.0917 v -27.8813 z"
         style="opacity:1;fill:#ff9955;fill-opacity:1;fill-rule:nonzero;stroke:#95694c;stroke-width:2;stroke-linecap:round;stroke-linejoin:round;stroke-miterlimit:4;stroke-dasharray:none;stroke-dashoffset:0;stroke-opacity:1"
         inkscape:connector-curvature="0" />
      <path
         sodipodi:nodetypes="cc"
         inkscape:connector-curvature="0"
         id="path6377-35-5"
         d="m 1171.6814,1096.8964 c 2.5981,0.311 5.1721,0.3341 7.7212,0.055"
         style="fill:none;fill-rule:evenodd;stroke:#95694c;stroke-width:2;stroke-linecap:round;stroke-linejoin:round;stroke-miterlimit:4;stroke-dasharray:none;stroke-opacity:0.31372549" />
      <path
         sodipodi:nodetypes="cc"
         inkscape:connector-curvature="0"
         id="path6377-35-6-4"
         d="m 1171.7644,1094.1462 c 2.5981,0.311 5.1721,0.3341 7.7211,0.056"
         style="fill:none;fill-rule:evenodd;stroke:#95694c;stroke-width:2;stroke-linecap:round;stroke-linejoin:round;stroke-miterlimit:4;stroke-dasharray:none;stroke-opacity:0.31372549" />
      <path
         sodipodi:nodetypes="cc"
         inkscape:connector-curvature="0"
         id="path6377-35-2-7"
         d="m 1171.7645,1091.4373 c 2.5981,0.311 5.1721,0.3341 7.7212,0.055"
         style="fill:none;fill-rule:evenodd;stroke:#95694c;stroke-width:2;stroke-linecap:round;stroke-linejoin:round;stroke-miterlimit:4;stroke-dasharray:none;stroke-opacity:0.31372549" />
      <path
         sodipodi:nodetypes="cc"
         inkscape:connector-curvature="0"
         id="path6377-35-9-4"
         d="m 1171.746,1088.5259 c 2.5981,0.3109 5.1722,0.334 7.7212,0.055"
         style="fill:none;fill-rule:evenodd;stroke:#95694c;stroke-width:2;stroke-linecap:round;stroke-linejoin:round;stroke-miterlimit:4;stroke-dasharray:none;stroke-opacity:0.31372549" />
      <path
         sodipodi:nodetypes="cc"
         inkscape:connector-curvature="0"
         id="path6377-35-1-4"
         d="m 1171.746,1085.559 c 2.5981,0.311 5.1722,0.3341 7.7212,0.055"
         style="fill:none;fill-rule:evenodd;stroke:#95694c;stroke-width:2;stroke-linecap:round;stroke-linejoin:round;stroke-miterlimit:4;stroke-dasharray:none;stroke-opacity:0.31372549" />
      <path
         sodipodi:nodetypes="cc"
         inkscape:connector-curvature="0"
         id="path6377-35-27-3"
         d="m 1171.7276,1082.5186 c 2.5981,0.3109 5.1721,0.3341 7.7211,0.055"
         style="fill:none;fill-rule:evenodd;stroke:#95694c;stroke-width:2;stroke-linecap:round;stroke-linejoin:round;stroke-miterlimit:4;stroke-dasharray:none;stroke-opacity:0.31372549" />
    </g>
    <g
       id="g6501-0"
       transform="matrix(0.76594917,0,0,0.76594917,-263.92557,-444.7266)"
       inkscape:export-filename="/home/pacmiam/images/work/blog/camille.png"
       inkscape:export-xdpi="100"
       inkscape:export-ydpi="100"
       style="stroke-width:2;stroke-miterlimit:4;stroke-dasharray:none">
      <path
         id="path11506-0-7"
         d="m 1129.5062,1065.2155 v 27.0959 c -17.7826,0.4283 -46.0945,6.9654 -51.852,8.5082 -17.6916,4.7407 -22.0702,10.7792 0.7145,10.7792 24.0158,0 35.6196,0.013 61.5938,0.013 9.0341,0 10.7725,-14.456 1.6792,-17.9646 v -28.4312 h -12.1355 z"
         style="opacity:1;fill:#ff9955;fill-opacity:1;fill-rule:nonzero;stroke:#95694c;stroke-width:2;stroke-linecap:round;stroke-linejoin:round;stroke-miterlimit:4;stroke-dasharray:none;stroke-dashoffset:0;stroke-opacity:1"
         inkscape:connector-curvature="0" />
      <path
         sodipodi:nodetypes="cc"
         inkscape:connector-curvature="0"
         id="path6377-8"
         d="m 1131.6575,1092.5937 c 2.8965,0.7302 5.0176,0.8723 7.8132,0.6818"
         style="fill:none;fill-rule:evenodd;stroke:#95694c;stroke-width:2;stroke-linecap:round;stroke-linejoin:round;stroke-miterlimit:4;stroke-dasharray:none;stroke-opacity:0.31372549" />
      <path
         sodipodi:nodetypes="cc"
         inkscape:connector-curvature="0"
         id="path6377-3-68"
         d="m 1131.6205,1089.7467 c 2.8965,0.7302 5.0176,0.8723 7.8132,0.6818"
         style="fill:none;fill-rule:evenodd;stroke:#95694c;stroke-width:2;stroke-linecap:round;stroke-linejoin:round;stroke-miterlimit:4;stroke-dasharray:none;stroke-opacity:0.31372549" />
      <path
         sodipodi:nodetypes="cc"
         inkscape:connector-curvature="0"
         id="path6377-6-8"
         d="m 1131.6573,1086.8352 c 2.8965,0.7302 5.0176,0.8723 7.8132,0.6818"
         style="fill:none;fill-rule:evenodd;stroke:#95694c;stroke-width:2;stroke-linecap:round;stroke-linejoin:round;stroke-miterlimit:4;stroke-dasharray:none;stroke-opacity:0.31372549" />
      <path
         sodipodi:nodetypes="cc"
         inkscape:connector-curvature="0"
         id="path6377-7-4"
         d="m 1131.7127,1084.1079 c 2.8966,0.7303 5.0176,0.8724 7.8133,0.6819"
         style="fill:none;fill-rule:evenodd;stroke:#95694c;stroke-width:2;stroke-linecap:round;stroke-linejoin:round;stroke-miterlimit:4;stroke-dasharray:none;stroke-opacity:0.31372549" />
      <path
         sodipodi:nodetypes="cc"
         inkscape:connector-curvature="0"
         id="path6377-5-3"
         d="m 1131.6389,1081.3254 c 2.8966,0.7303 5.0176,0.8724 7.8133,0.6819"
         style="fill:none;fill-rule:evenodd;stroke:#95694c;stroke-width:2;stroke-linecap:round;stroke-linejoin:round;stroke-miterlimit:4;stroke-dasharray:none;stroke-opacity:0.31372549" />
    </g>
    <path
       sodipodi:nodetypes="ccccccc"
       inkscape:connector-curvature="0"
       id="path10121-1"
       d="m 654.54588,371.23161 c -9.64376,11.41708 -49.65579,13.32376 -62.39445,0 -13.29204,-13.52252 -11.23103,-32.43963 -2.55497,-52.1876 6.92878,-16.42964 10.46118,-33.38096 10.97398,-53.28591 -0.92235,-24.21111 39.11618,-26.48464 39.97159,-1.65691 -0.88337,14.75942 7.0632,38.30979 13.17854,61.13267 7.67274,28.63491 13.83573,33.81978 0.82531,45.99775 z"
       style="fill:url(#linearGradient6565-6);fill-opacity:1;fill-rule:evenodd;stroke:#ffc400;stroke-width:1.53189826;stroke-linecap:round;stroke-linejoin:round;stroke-miterlimit:4;stroke-dasharray:none;stroke-opacity:1"
       inkscape:export-filename="/home/pacmiam/images/work/blog/camille.png"
       inkscape:export-xdpi="100"
       inkscape:export-ydpi="100" />
    <path
       style="fill:#ffdd55;fill-opacity:1;stroke:#ffc400;stroke-width:1.53189826;stroke-linecap:round;stroke-linejoin:round;stroke-miterlimit:4;stroke-dasharray:none;stroke-opacity:1"
       d="m 619.87925,288.3965 c 21.45684,54.9819 29.10546,84.28398 39.89968,80.70876 8.52876,-2.82482 -3.26831,-32.35576 -21.34142,-99.04278"
       id="path5035-8-8-6-9-4"
       inkscape:connector-curvature="0"
       sodipodi:nodetypes="csc"
       inkscape:export-filename="/home/pacmiam/images/work/blog/camille.png"
       inkscape:export-xdpi="100"
       inkscape:export-ydpi="100" />
    <path
       sodipodi:nodetypes="ccsscscc"
       inkscape:connector-curvature="0"
       id="path10119-92"
       d="m 600.52418,267.53448 c -14.37396,-13.20783 -24.4249,-27.40883 -12.68971,-48.71293 2.19062,-3.81164 4.88568,-6.96787 7.94933,-9.51847 1.08466,-0.90304 2.21558,-1.73016 3.38664,-2.48358 6.53171,-4.20226 14.31314,-6.11162 22.29778,-6.11162 9.92355,0 18.36279,2.65309 25.26981,8.37493 3.16161,2.61905 6.0022,5.88106 8.5172,9.82589 9.91689,15.55494 4.0426,37.18757 -15.29241,48.25629"
       style="fill:#ffdd55;fill-opacity:1;fill-rule:evenodd;stroke:#ffc400;stroke-width:1.53189826;stroke-linecap:round;stroke-linejoin:round;stroke-miterlimit:4;stroke-dasharray:none;stroke-opacity:1"
       inkscape:export-filename="/home/pacmiam/images/work/blog/camille.png"
       inkscape:export-xdpi="100"
       inkscape:export-ydpi="100" />
    <path
       inkscape:connector-curvature="0"
       style="fill:#ffffff;fill-opacity:1;stroke:none;stroke-width:0.38297457;stroke-miterlimit:4;stroke-dasharray:none;stroke-opacity:1"
       d="m 588.23751,224.94707 a 9.3935776,14.287944 0 0 0 -1.06965,6.59434 9.3935776,14.287944 0 0 0 9.39337,14.28825 9.3935776,14.287944 0 0 0 9.39338,-14.28825 9.3935776,14.287944 0 0 0 -1.06514,-6.59434 z"
       id="path4957-7-915-0" />
    <ellipse
       style="fill:#000000;fill-opacity:1;stroke:none;stroke-width:0.81701255"
       id="path4977-4-61-6"
       cx="601.98071"
       cy="235.12436"
       rx="2.9621518"
       ry="4.7928624"
       inkscape:export-filename="/home/pacmiam/images/work/blog/camille.png"
       inkscape:export-xdpi="100"
       inkscape:export-ydpi="100" />
    <path
       inkscape:connector-curvature="0"
       style="fill:#ffffff;fill-opacity:1;stroke:none;stroke-width:0.38297457;stroke-miterlimit:4;stroke-dasharray:none;stroke-opacity:1"
       d="m 611.68123,224.94707 a 9.694837,14.746167 0 0 0 -0.97682,6.40885 9.694837,14.746167 0 0 0 9.694,14.74601 9.694837,14.746167 0 0 0 9.69554,-14.74601 9.694837,14.746167 0 0 0 -0.97237,-6.40885 z"
       id="path4957-4-6-3-9" />
    <ellipse
       ry="4.7928624"
       rx="2.9621518"
       cy="235.77214"
       cx="621.25891"
       style="fill:#000000;fill-opacity:1;stroke:none;stroke-width:0.81701255"
       id="path4977-8-9-0-2" />
    <path
       inkscape:export-ydpi="100"
       inkscape:export-xdpi="100"
       inkscape:export-filename="/home/pacmiam/images/work/blog/camille.png"
       sodipodi:nodetypes="ccccccccccccccccccccc"
       inkscape:connector-curvature="0"
       id="path5878-4-7-4-2-8-5-2-4"
       d="m 645.79407,208.67838 c 0,0 27.40382,-15.12574 10.86422,-24.67489 -9.00196,-5.19727 -24.3604,7.15646 -24.3604,7.15646 0,0 4.18239,-18.30388 -7.68047,-18.30388 -14.70271,0 -16.83296,19.05046 -16.83296,19.05046 0,0 -16.92763,-16.27189 -26.75982,-6.43973 -8.84717,8.84718 15.44629,23.32599 15.44629,23.32599 0.42923,0.24213 1.14333,-0.30307 3.09114,-0.81917 1.66341,1.16992 2.6868,-0.31528 3.8371,-1.01989 1.33045,0.69548 2.55106,1.32893 4.32003,-0.25289 1.50662,1.80877 2.40937,0.47606 3.33525,-0.4637 1.36277,1.31522 2.21497,0.94739 3.48154,-0.28961 1.33996,1.1505 2.56539,1.15864 3.58511,-0.47498 1.22881,1.25558 2.47408,1.77201 3.92357,-0.003 1.12334,1.49525 2.40363,0.90633 3.44378,0.3004 1.19649,0.70974 2.55628,1.76307 3.76181,0.88154 1.32976,0.61638 2.62728,0.73207 3.81259,-0.18632 1.08289,0.3548 2.07434,0.79617 3.8387,-0.0374 -0.42234,0.56188 2.4024,2.02748 4.01504,1.14225 1.43094,1.07614 3.04043,1.99821 4.87748,1.10842 z"
       style="display:inline;fill:#241f1c;stroke:#1a1a1a;stroke-width:1.53189826;stroke-linecap:round;stroke-linejoin:round;stroke-miterlimit:4;stroke-dasharray:none;stroke-opacity:1" />
    <path
       style="fill:#000000;stroke:#000000;stroke-width:0.92038095px;stroke-linecap:round;stroke-linejoin:round;stroke-opacity:1"
       d="m 588.67936,223.82024 c 4.59659,-2.34472 9.49254,-2.78726 15.61358,0 -4.49459,0.0378 -9.68921,-0.0184 -15.61358,0 z"
       id="path13595"
       inkscape:connector-curvature="0"
       sodipodi:nodetypes="ccc" />
    <path
       style="fill:#1a1a1a;fill-opacity:1;fill-rule:nonzero;stroke:none;stroke-width:0.91499192;stroke-miterlimit:4;stroke-dasharray:none"
       d="m 582.88628,248.06938 c 8.09478,0 16.18964,0 24.28434,0 0,3.13145 0,6.26291 0,9.39436 -8.0947,0 -16.18956,0 -24.28434,0 2.22784,-3.13145 3.08356,-6.26291 0,-9.39436 z"
       id="rect3345-1-6-9"
       inkscape:connector-curvature="0"
       sodipodi:nodetypes="ccccc" />
    <ellipse
       style="fill:#a02c2c;fill-opacity:1;fill-rule:nonzero;stroke:none;stroke-width:1.0565722;stroke-miterlimit:4;stroke-dasharray:none"
       id="path3343-3-4-5"
       cx="-596.6709"
       cy="255.59645"
       rx="11.165878"
       ry="2.0679569"
       transform="scale(-1,1)" />
    <path
       sodipodi:nodetypes="csccccccc"
       inkscape:connector-curvature="0"
       id="path6582-6"
       d="m 598.0366,262.6927 c 10.2867,0 17.4592,-5.03618 17.4592,-11.29421 0,-7.27519 -3.9984,-11.20053 -12.12842,-11.20053 -15.16893,0 -38.52594,8.53173 -55.71836,4.20998 -6.93682,-1.85873 -6.61244,7.41018 0.28264,7.41018 l 31.76,-0.44998 c 15.3631,0 24.05387,-4.82049 26.66982,-0.28951 3.45297,5.98069 -11.73657,7.23683 -26.51724,3.81021 3.94793,6.83801 12.64207,7.78555 18.19236,7.80386 z"
       style="fill:#ff9955;fill-opacity:1;stroke:#c36e32;stroke-width:1.53189826;stroke-linecap:round;stroke-linejoin:round;stroke-miterlimit:4;stroke-dasharray:none;stroke-opacity:1"
       inkscape:export-filename="/home/pacmiam/images/work/blog/camille.png"
       inkscape:export-xdpi="100"
       inkscape:export-ydpi="100" />
    <rect
       style="opacity:1;fill:#784421;fill-opacity:1;fill-rule:evenodd;stroke:#28170b;stroke-width:0.9375;stroke-linecap:round;stroke-linejoin:round;stroke-miterlimit:4;stroke-dasharray:none;stroke-dashoffset:0;stroke-opacity:1"
       id="rect13597"
       width="10.938051"
       height="93.304955"
       x="453.76367"
       y="349.16806"
       rx="2.8173785"
       ry="2.8173785" />
    <path
       style="opacity:1;fill:#784421;fill-opacity:1;fill-rule:evenodd;stroke:#28170b;stroke-width:0.9375;stroke-linecap:round;stroke-linejoin:round;stroke-miterlimit:4;stroke-dasharray:none;stroke-dashoffset:0;stroke-opacity:1"
       d="m 708.93496,349.16749 c -1.56084,0 -2.818,1.25716 -2.818,2.81799 v 87.6709 c 0,1.56083 1.25716,2.81616 2.818,2.81616 h 5.30273 c 0.11354,0 0.22146,-0.02 0.33142,-0.0329 V 349.2005 c -0.10996,-0.0129 -0.21788,-0.033 -0.33142,-0.033 z"
       id="rect13599"
       inkscape:connector-curvature="0" />
    <rect
       ry="2.6702092"
       rx="2.6702092"
       y="346.85797"
       x="486.96765"
       height="77.297813"
       width="9.0615578"
       id="rect13601"
       style="opacity:1;fill:#502d16;fill-opacity:1;fill-rule:evenodd;stroke:#28170b;stroke-width:0.9375;stroke-linecap:round;stroke-linejoin:round;stroke-miterlimit:4;stroke-dasharray:none;stroke-dashoffset:0;stroke-opacity:1" />
    <path
       style="opacity:1;fill:#784421;fill-opacity:1;fill-rule:evenodd;stroke:#28170b;stroke-width:0.9375;stroke-linecap:round;stroke-linejoin:round;stroke-miterlimit:4;stroke-dasharray:none;stroke-dashoffset:0;stroke-opacity:1"
       d="m 488.9502,336.39062 c 101.71875,0 123.90236,10e-6 225.62111,0 l 10e-4,6.79688 c -101.30908,-10e-6 -170.25098,0 -271.56006,0 z"
       id="rect13592"
       inkscape:connector-curvature="0"
       sodipodi:nodetypes="ccccc" />
    <rect
       style="opacity:1;fill:#502d16;fill-opacity:1;fill-rule:evenodd;stroke:#28170b;stroke-width:0.9375;stroke-linecap:round;stroke-linejoin:round;stroke-miterlimit:4;stroke-dasharray:none;stroke-dashoffset:0;stroke-opacity:1"
       id="rect13590"
       width="271.56738"
       height="13.886719"
       x="443.0127"
       y="343.1875" />
    <path
       style="opacity:1;fill:url(#linearGradient14380);fill-opacity:1;fill-rule:evenodd;stroke:#333333;stroke-width:0.91696596;stroke-linecap:round;stroke-linejoin:round;stroke-miterlimit:4;stroke-dasharray:none;stroke-dashoffset:0;stroke-opacity:1"
       d="m 640.65966,301.99309 c 0,14.22541 8.39061,14.1548 18.48934,14.1548 v 8.51305 c -22.21708,0 -29.45139,-7.9774 -29.45139,-22.56164 z"
       id="rect13682"
       inkscape:connector-curvature="0"
       sodipodi:nodetypes="ccccc" />
    <ellipse
       style="opacity:1;fill:#000000;fill-opacity:0.2;fill-rule:evenodd;stroke:none;stroke-width:0.8171792;stroke-linecap:round;stroke-linejoin:round;stroke-miterlimit:4;stroke-dasharray:none;stroke-dashoffset:0;stroke-opacity:1"
       id="path13119-5-1"
       cx="669.63153"
       cy="339.26172"
       rx="43.887112"
       ry="1.9742631" />
    <path
       style="opacity:1;fill:url(#linearGradient14372);fill-opacity:1;fill-rule:evenodd;stroke:#666666;stroke-width:0.91696596;stroke-linecap:round;stroke-linejoin:round;stroke-miterlimit:4;stroke-dasharray:none;stroke-dashoffset:0;stroke-opacity:1"
       d="m 678.44334,301.79545 c -17.94049,-1.1e-4 -32.48425,10.19044 -32.48425,22.76117 0.004,5.18217 2.53009,10.20843 7.16292,14.2479 h 50.6167 c 4.64215,-4.03704 7.17829,-9.06354 7.18888,-14.2479 0,-12.57073 -14.54377,-22.76128 -32.48425,-22.76117 z"
       id="path13658"
       inkscape:connector-curvature="0"
       sodipodi:nodetypes="cccccc" />
    <rect
       style="opacity:1;fill:url(#linearGradient14388);fill-opacity:1;fill-rule:evenodd;stroke:#333333;stroke-width:0.91696596;stroke-linecap:round;stroke-linejoin:round;stroke-miterlimit:4;stroke-dasharray:none;stroke-dashoffset:0;stroke-opacity:1"
       id="rect13656"
       width="18.818285"
       height="13.743637"
       x="668.63074"
       y="292.96848"
       rx="2.0432682"
       ry="2.0432682" />
    <path
       style="fill:none;fill-rule:evenodd;stroke:#333333;stroke-width:0.91696596;stroke-linecap:butt;stroke-linejoin:miter;stroke-miterlimit:4;stroke-dasharray:none;stroke-opacity:1"
       d="m 676.87501,258.24422 c 1.23354,-4.8129 4.14505,-8.92664 8.2442,-12.54554"
       id="path13652"
       inkscape:connector-curvature="0"
       sodipodi:nodetypes="cc" />
    <ellipse
       style="opacity:1;fill:#666666;fill-opacity:1;fill-rule:evenodd;stroke:#333333;stroke-width:0.91696596;stroke-linecap:round;stroke-linejoin:round;stroke-miterlimit:4;stroke-dasharray:none;stroke-dashoffset:0;stroke-opacity:1"
       id="path13648"
       cx="677.32306"
       cy="260.17087"
       rx="6.0039358"
       ry="3.0019679" />
    <rect
       style="opacity:1;fill:#e6e6e6;fill-opacity:1;fill-rule:evenodd;stroke:#666666;stroke-width:0.91696596;stroke-linecap:round;stroke-linejoin:round;stroke-miterlimit:4;stroke-dasharray:none;stroke-dashoffset:0;stroke-opacity:1"
       id="rect13638"
       width="59.57719"
       height="38.525639"
       x="648.05182"
       y="259.24203"
       rx="1.377833"
       ry="1.8847507" />
    <path
       style="opacity:1;fill:#ffffff;fill-opacity:1;fill-rule:evenodd;stroke:#333333;stroke-width:0.91696596;stroke-linecap:round;stroke-linejoin:round;stroke-miterlimit:4;stroke-dasharray:none;stroke-dashoffset:0;stroke-opacity:1"
       d="m 653.77517,283.82746 c 15.54766,0.86373 31.16409,0.55832 46.79542,0 1.50268,0.189 1.40434,1.9548 1.37784,3.11521 -0.0781,1.38745 0.19806,2.8306 -0.2347,4.1659 -0.56916,1.23148 -2.02746,0.72297 -3.09136,0.82955 -14.94907,0.7446 -29.89814,1.09938 -44.8472,0 -1.50268,-0.189 -1.40434,-1.9548 -1.37784,-3.1152 0.0781,-1.38746 -0.19806,-2.83061 0.2347,-4.16591 0.20967,-0.43862 0.62954,-0.83352 1.14314,-0.82955 z"
       id="rect13640"
       inkscape:connector-curvature="0"
       sodipodi:nodetypes="ccccccccc" />
    <circle
       style="opacity:1;fill:#1a1a1a;fill-opacity:1;fill-rule:evenodd;stroke:#000000;stroke-width:0.91696596;stroke-linecap:round;stroke-linejoin:round;stroke-miterlimit:4;stroke-dasharray:none;stroke-dashoffset:0;stroke-opacity:1"
       id="path13642"
       cx="660.65192"
       cy="273.28195"
       r="5.9742789" />
    <path
       style="fill:none;fill-rule:evenodd;stroke:#000000;stroke-width:0.45848298px;stroke-linecap:butt;stroke-linejoin:miter;stroke-opacity:1"
       d="m 653.47458,288.45307 h 4.98536 c 1.63239,-2.82738 0.60873,-2.82595 2.24029,0 1.63096,2.8249 1.30915,2.85445 2.95717,0 h 24.10534 c 1.12241,-3.5216 0.96272,-3.49586 1.97147,0 1.01169,2.83808 0.45519,2.89781 2.12824,0 h 8.43851"
       id="path13646"
       inkscape:connector-curvature="0"
       sodipodi:nodetypes="cccccccc" />
    <circle
       style="opacity:1;fill:#782121;fill-opacity:1;fill-rule:evenodd;stroke:#501616;stroke-width:0.91696596;stroke-linecap:round;stroke-linejoin:round;stroke-miterlimit:4;stroke-dasharray:none;stroke-dashoffset:0;stroke-opacity:1"
       id="path13654"
       cx="687.4043"
       cy="245.56427"
       r="3.8084669" />
    <rect
       style="opacity:1;fill:#b3b3b3;fill-opacity:1;fill-rule:evenodd;stroke:#808080;stroke-width:0.46875001;stroke-linecap:round;stroke-linejoin:round;stroke-miterlimit:4;stroke-dasharray:none;stroke-dashoffset:0;stroke-opacity:1"
       id="rect13666"
       width="36.814793"
       height="18.692537"
       x="658.73376"
       y="316.58694"
       rx="4.4355154"
       ry="4.4355154" />
    <circle
       style="opacity:1;fill:#333333;fill-opacity:1;fill-rule:evenodd;stroke:none;stroke-width:0.46875001;stroke-linecap:round;stroke-linejoin:round;stroke-miterlimit:4;stroke-dasharray:none;stroke-dashoffset:0;stroke-opacity:1"
       id="path13668"
       cx="662.18713"
       cy="320.04028"
       r="1.298973" />
    <circle
       r="1.298973"
       cy="320.04028"
       cx="691.71503"
       id="circle13676"
       style="opacity:1;fill:#333333;fill-opacity:1;fill-rule:evenodd;stroke:none;stroke-width:0.46875001;stroke-linecap:round;stroke-linejoin:round;stroke-miterlimit:4;stroke-dasharray:none;stroke-dashoffset:0;stroke-opacity:1" />
    <circle
       r="1.298973"
       cy="332.14294"
       cx="662.18713"
       id="circle13678"
       style="opacity:1;fill:#333333;fill-opacity:1;fill-rule:evenodd;stroke:none;stroke-width:0.46875001;stroke-linecap:round;stroke-linejoin:round;stroke-miterlimit:4;stroke-dasharray:none;stroke-dashoffset:0;stroke-opacity:1" />
    <circle
       style="opacity:1;fill:#333333;fill-opacity:1;fill-rule:evenodd;stroke:none;stroke-width:0.46875001;stroke-linecap:round;stroke-linejoin:round;stroke-miterlimit:4;stroke-dasharray:none;stroke-dashoffset:0;stroke-opacity:1"
       id="circle13680"
       cx="691.71503"
       cy="332.14294"
       r="1.298973" />
    <path
       style="opacity:1;fill:url(#linearGradient14408);fill-opacity:1;fill-rule:evenodd;stroke:#333333;stroke-width:0.91696596;stroke-linecap:round;stroke-linejoin:round;stroke-miterlimit:4;stroke-dasharray:none;stroke-dashoffset:0;stroke-opacity:1"
       d="m 642.11223,281.10545 -1.32442,6.60413 c -1.60946,-0.89021 -3.46366,-1.36298 -5.35582,-1.3656 -2.22479,0.003 -4.38768,0.6557 -6.15999,1.85901 l -0.65994,-6.7483 c -0.76599,-5.72297 -5.17407,-4.83768 -4.63765,0.45401 l 0.80235,8.20434 c 0.091,0.93122 0.50502,1.72714 1.07991,2.21898 -0.41956,1.00901 -0.63661,2.0764 -0.64114,3.15297 1.3e-4,5.04827 4.57428,9.14052 10.21646,9.14011 5.64182,-5e-5 10.21542,-4.09217 10.21556,-9.14011 -0.004,-1.42704 -0.38101,-2.83346 -1.10142,-4.10664 0.23718,-0.36556 0.41823,-0.79597 0.51401,-1.27336 l 1.62078,-8.08346 c 0.96566,-6.39321 -3.39397,-6.53899 -4.56869,-0.91608 z"
       id="path13685"
       inkscape:connector-curvature="0"
       sodipodi:nodetypes="ccccccccccccccc" />
    <rect
       transform="rotate(75.724539)"
       style="opacity:1;fill:#666666;fill-opacity:1;fill-rule:evenodd;stroke:#333333;stroke-width:0.91696596;stroke-linecap:round;stroke-linejoin:round;stroke-miterlimit:4;stroke-dasharray:none;stroke-dashoffset:0;stroke-opacity:1"
       id="rect13712"
       width="4.6414599"
       height="10.103373"
       x="440.88101"
       y="-554.87451"
       ry="2.9795651" />
    <rect
       ry="2.9795651"
       y="314.0365"
       x="615.62231"
       height="7.9207001"
       width="4.5422878"
       id="rect13714"
       style="opacity:1;fill:#666666;fill-opacity:1;fill-rule:evenodd;stroke:#333333;stroke-width:0.91696596;stroke-linecap:round;stroke-linejoin:round;stroke-miterlimit:4;stroke-dasharray:none;stroke-dashoffset:0;stroke-opacity:1"
       transform="rotate(-2.727113)" />
    <rect
       transform="matrix(-0.99584455,-0.0910694,-0.0910694,0.99584455,0,0)"
       style="opacity:1;fill:#666666;fill-opacity:1;fill-rule:evenodd;stroke:#333333;stroke-width:0.91696596;stroke-linecap:round;stroke-linejoin:round;stroke-miterlimit:4;stroke-dasharray:none;stroke-dashoffset:0;stroke-opacity:1"
       id="rect13716"
       width="4.5422878"
       height="7.9207001"
       x="-663.28516"
       y="225.14218"
       ry="2.9795651" />
    <circle
       r="5.9742789"
       cy="273.28195"
       cx="692.91187"
       id="circle13720"
       style="opacity:1;fill:#1a1a1a;fill-opacity:1;fill-rule:evenodd;stroke:#000000;stroke-width:0.91696596;stroke-linecap:round;stroke-linejoin:round;stroke-miterlimit:4;stroke-dasharray:none;stroke-dashoffset:0;stroke-opacity:1" />
    <path
       style="fill:#ffdd55;fill-opacity:1;fill-rule:evenodd;stroke:#ffc400;stroke-width:1.875;stroke-linecap:round;stroke-linejoin:round;stroke-miterlimit:4;stroke-dasharray:none;stroke-opacity:1"
       d="m 252.88684,406.18094 c -1.87762,9.5985 -16.06209,14.05322 -23.89378,12.26231 -16.26262,-3.70734 -39.87056,-36.91678 -30.90722,-44.18288 5.92107,-4.79986 11.27325,-1.45187 11.27325,-1.45187 -4.30284,-4.30288 -8.16618,-8.23187 1.09538,-13.57904 13.43728,-7.758 15.79819,8.48452 15.79819,8.48452 0,0 -1.30725,-5.8593 5.55131,-7.97182 20.34975,-6.26796 22.66837,34.746 21.08287,46.43878 z"
       id="path6474-5-9"
       inkscape:connector-curvature="0"
       sodipodi:nodetypes="ccscsccc"
       inkscape:export-filename="/home/pacmiam/images/work/blog/camille.png"
       inkscape:export-xdpi="100"
       inkscape:export-ydpi="100" />
    <g
       id="g6492-3-0"
       transform="matrix(-0.93750002,0,0,0.93750002,1342.9609,-579.74526)"
       inkscape:export-filename="/home/pacmiam/images/work/blog/camille.png"
       inkscape:export-xdpi="100"
       inkscape:export-ydpi="100"
       style="stroke-width:2;stroke-miterlimit:4;stroke-dasharray:none">
      <path
         id="path11506-5-8"
         d="m 1169.6771,1068.9925 v 27.9876 c -2.9644,0.5758 -5.7354,1.5558 -8.0708,2.9042 -8.0486,4.6469 -11.0224,14.1729 -0.3688,14.1729 9.9565,0 17.6391,-0.1917 29.1813,-0.1917 9.8946,0 9.4417,-8.3586 -0.1563,-13.9 -2.6554,-1.5331 -5.6495,-2.5452 -8.7438,-3.0917 v -27.8813 z"
         style="opacity:1;fill:#ff9955;fill-opacity:1;fill-rule:nonzero;stroke:#95694c;stroke-width:2;stroke-linecap:round;stroke-linejoin:round;stroke-miterlimit:4;stroke-dasharray:none;stroke-dashoffset:0;stroke-opacity:1"
         inkscape:connector-curvature="0" />
      <path
         sodipodi:nodetypes="cc"
         inkscape:connector-curvature="0"
         id="path6377-35-62-8"
         d="m 1171.6814,1096.8964 c 2.5981,0.311 5.1721,0.3341 7.7212,0.055"
         style="fill:none;fill-rule:evenodd;stroke:#95694c;stroke-width:2;stroke-linecap:round;stroke-linejoin:round;stroke-miterlimit:4;stroke-dasharray:none;stroke-opacity:0.31372549" />
      <path
         sodipodi:nodetypes="cc"
         inkscape:connector-curvature="0"
         id="path6377-35-6-9-5"
         d="m 1171.7644,1094.1462 c 2.5981,0.311 5.1721,0.3341 7.7211,0.056"
         style="fill:none;fill-rule:evenodd;stroke:#95694c;stroke-width:2;stroke-linecap:round;stroke-linejoin:round;stroke-miterlimit:4;stroke-dasharray:none;stroke-opacity:0.31372549" />
      <path
         sodipodi:nodetypes="cc"
         inkscape:connector-curvature="0"
         id="path6377-35-2-1-0"
         d="m 1171.7645,1091.4373 c 2.5981,0.311 5.1721,0.3341 7.7212,0.055"
         style="fill:none;fill-rule:evenodd;stroke:#95694c;stroke-width:2;stroke-linecap:round;stroke-linejoin:round;stroke-miterlimit:4;stroke-dasharray:none;stroke-opacity:0.31372549" />
      <path
         sodipodi:nodetypes="cc"
         inkscape:connector-curvature="0"
         id="path6377-35-9-2-9"
         d="m 1171.746,1088.5259 c 2.5981,0.3109 5.1722,0.334 7.7212,0.055"
         style="fill:none;fill-rule:evenodd;stroke:#95694c;stroke-width:2;stroke-linecap:round;stroke-linejoin:round;stroke-miterlimit:4;stroke-dasharray:none;stroke-opacity:0.31372549" />
      <path
         sodipodi:nodetypes="cc"
         inkscape:connector-curvature="0"
         id="path6377-35-1-7-6"
         d="m 1171.746,1085.559 c 2.5981,0.311 5.1722,0.3341 7.7212,0.055"
         style="fill:none;fill-rule:evenodd;stroke:#95694c;stroke-width:2;stroke-linecap:round;stroke-linejoin:round;stroke-miterlimit:4;stroke-dasharray:none;stroke-opacity:0.31372549" />
      <path
         sodipodi:nodetypes="cc"
         inkscape:connector-curvature="0"
         id="path6377-35-27-0-3"
         d="m 1171.7276,1082.5186 c 2.5981,0.3109 5.1721,0.3341 7.7211,0.055"
         style="fill:none;fill-rule:evenodd;stroke:#95694c;stroke-width:2;stroke-linecap:round;stroke-linejoin:round;stroke-miterlimit:4;stroke-dasharray:none;stroke-opacity:0.31372549" />
    </g>
    <g
       id="g6501-9-8"
       transform="matrix(-0.93750002,0,0,0.93750002,1342.9609,-579.74526)"
       inkscape:export-filename="/home/pacmiam/images/work/blog/camille.png"
       inkscape:export-xdpi="100"
       inkscape:export-ydpi="100"
       style="stroke-width:2;stroke-miterlimit:4;stroke-dasharray:none">
      <path
         id="path11506-0-3-5"
         d="m 1129.5062,1065.2155 v 27.0959 c -17.7826,0.4283 -46.0945,6.9654 -51.852,8.5082 -17.6916,4.7407 -22.0702,10.7792 0.7145,10.7792 24.0158,0 35.6196,0.013 61.5938,0.013 9.0341,0 10.7725,-14.456 1.6792,-17.9646 v -28.4312 h -12.1355 z"
         style="opacity:1;fill:#ff9955;fill-opacity:1;fill-rule:nonzero;stroke:#95694c;stroke-width:2;stroke-linecap:round;stroke-linejoin:round;stroke-miterlimit:4;stroke-dasharray:none;stroke-dashoffset:0;stroke-opacity:1"
         inkscape:connector-curvature="0" />
      <path
         sodipodi:nodetypes="cc"
         inkscape:connector-curvature="0"
         id="path6377-60-6"
         d="m 1131.6575,1092.5937 c 2.8965,0.7302 5.0176,0.8723 7.8132,0.6818"
         style="fill:none;fill-rule:evenodd;stroke:#95694c;stroke-width:2;stroke-linecap:round;stroke-linejoin:round;stroke-miterlimit:4;stroke-dasharray:none;stroke-opacity:0.31372549" />
      <path
         sodipodi:nodetypes="cc"
         inkscape:connector-curvature="0"
         id="path6377-3-6-1"
         d="m 1131.6205,1089.7467 c 2.8965,0.7302 5.0176,0.8723 7.8132,0.6818"
         style="fill:none;fill-rule:evenodd;stroke:#95694c;stroke-width:2;stroke-linecap:round;stroke-linejoin:round;stroke-miterlimit:4;stroke-dasharray:none;stroke-opacity:0.31372549" />
      <path
         sodipodi:nodetypes="cc"
         inkscape:connector-curvature="0"
         id="path6377-6-2-1"
         d="m 1131.6573,1086.8352 c 2.8965,0.7302 5.0176,0.8723 7.8132,0.6818"
         style="fill:none;fill-rule:evenodd;stroke:#95694c;stroke-width:2;stroke-linecap:round;stroke-linejoin:round;stroke-miterlimit:4;stroke-dasharray:none;stroke-opacity:0.31372549" />
      <path
         sodipodi:nodetypes="cc"
         inkscape:connector-curvature="0"
         id="path6377-7-6-5"
         d="m 1131.7127,1084.1079 c 2.8966,0.7303 5.0176,0.8724 7.8133,0.6819"
         style="fill:none;fill-rule:evenodd;stroke:#95694c;stroke-width:2;stroke-linecap:round;stroke-linejoin:round;stroke-miterlimit:4;stroke-dasharray:none;stroke-opacity:0.31372549" />
      <path
         sodipodi:nodetypes="cc"
         inkscape:connector-curvature="0"
         id="path6377-5-1-9"
         d="m 1131.6389,1081.3254 c 2.8966,0.7303 5.0176,0.8724 7.8133,0.6819"
         style="fill:none;fill-rule:evenodd;stroke:#95694c;stroke-width:2;stroke-linecap:round;stroke-linejoin:round;stroke-miterlimit:4;stroke-dasharray:none;stroke-opacity:0.31372549" />
    </g>
    <path
       sodipodi:nodetypes="ccccccc"
       inkscape:connector-curvature="0"
       id="path10121-8-8"
       d="m 218.77797,418.96441 c 11.80369,13.97418 60.77728,16.3079 76.36903,0 16.26909,-16.55119 13.74647,-39.70519 3.12722,-63.87615 -8.48063,-20.10941 -12.80419,-40.85734 -13.43185,-65.22044 1.12894,-29.63371 -47.87709,-32.41644 -48.92409,-2.028 1.08122,18.06511 -8.64516,46.89009 -16.13016,74.82464 -9.39121,35.04832 -16.93453,41.39445 -1.01015,56.29995 z"
       style="fill:url(#linearGradient6565-3-2);fill-opacity:1;fill-rule:evenodd;stroke:#ffc400;stroke-width:1.875;stroke-linecap:round;stroke-linejoin:round;stroke-miterlimit:4;stroke-dasharray:none;stroke-opacity:1"
       inkscape:export-filename="/home/pacmiam/images/work/blog/camille.png"
       inkscape:export-xdpi="100"
       inkscape:export-ydpi="100" />
    <path
       sodipodi:nodetypes="ccsscscc"
       inkscape:connector-curvature="0"
       id="path10119-9-4"
       d="m 284.899,292.04206 c 17.59331,-16.16601 29.89537,-33.54762 15.53184,-59.62323 -2.68125,-4.66535 -5.97994,-8.52848 -9.72975,-11.65034 -1.32759,-1.1053 -2.71181,-2.11767 -4.14516,-3.03983 -7.99462,-5.14344 -17.51887,-7.48044 -27.29184,-7.48044 -12.14615,0 -22.47553,3.24729 -30.92953,10.25066 -3.86972,3.20565 -7.34653,7.19826 -10.42481,12.02662 -12.138,19.0388 -4.94803,45.51652 18.71747,59.06432"
       style="fill:#ffdd55;fill-opacity:1;fill-rule:evenodd;stroke:#ffc400;stroke-width:1.875;stroke-linecap:round;stroke-linejoin:round;stroke-miterlimit:4;stroke-dasharray:none;stroke-opacity:1"
       inkscape:export-filename="/home/pacmiam/images/work/blog/camille.png"
       inkscape:export-xdpi="100"
       inkscape:export-ydpi="100" />
    <path
       id="path9762-8"
       d="m 280.25406,240.42856 a 11.866205,18.048889 0 0 0 -1.03819,7.33154 11.866205,18.048889 0 0 0 11.86528,18.04872 11.866205,18.048889 0 0 0 11.86707,-18.04872 11.866205,18.048889 0 0 0 -1.03453,-7.33154 z"
       style="fill:#ffffff;fill-opacity:1;stroke:none;stroke-width:0.46875;stroke-miterlimit:4;stroke-dasharray:none;stroke-opacity:1"
       inkscape:connector-curvature="0" />
    <ellipse
       style="fill:#000000;fill-opacity:1;stroke:none;stroke-width:1.00000012"
       id="path4977-4-61-0-1"
       cx="-286.70935"
       cy="248.61694"
       rx="3.6255896"
       ry="5.8663273"
       inkscape:export-filename="/home/pacmiam/images/work/blog/camille.png"
       inkscape:export-xdpi="100"
       inkscape:export-ydpi="100"
       transform="scale(-1,1)" />
    <path
       inkscape:export-ydpi="100"
       inkscape:export-xdpi="100"
       inkscape:export-filename="/home/pacmiam/images/work/blog/camille.png"
       sodipodi:nodetypes="ccccccccccccccccccccc"
       inkscape:connector-curvature="0"
       id="path5878-4-7-4-2-8-5-2-2-0"
       d="m 229.48994,220.00387 c 0,0 -33.5415,-18.51348 -13.2975,-30.20136 11.01815,-6.36132 29.81643,8.7593 29.81643,8.7593 0,0 -5.11912,-22.40343 9.40069,-22.40343 17.99569,0 20.60307,23.31722 20.60307,23.31722 0,0 20.71893,-19.91632 32.75324,-7.88204 10.82869,10.8287 -18.90581,28.55035 -18.90581,28.55035 -0.52538,0.29637 -1.39941,-0.37095 -3.78347,-1.00263 -2.03597,1.43193 -3.28856,-0.38591 -4.6965,-1.24832 -1.62844,0.85125 -3.12243,1.62656 -5.28759,-0.30954 -1.84406,2.21388 -2.949,0.58269 -4.08225,-0.56756 -1.668,1.6098 -2.71106,1.15958 -4.26131,-0.35447 -1.64006,1.40818 -3.13997,1.41815 -4.38806,-0.58135 -1.50404,1.53679 -3.02822,2.16888 -4.80235,-0.004 -1.37494,1.83015 -2.94197,1.10932 -4.21509,0.36769 -1.46447,0.86869 -3.12882,2.15794 -4.60435,1.07897 -1.62759,0.75444 -3.21572,0.89604 -4.6665,-0.22804 -1.32543,0.43426 -2.53893,0.97448 -4.69847,-0.0458 0.51694,0.68771 -2.94046,2.48156 -4.91428,1.39807 -1.75143,1.31716 -3.7214,2.44575 -5.9699,1.35668 z"
       style="display:inline;fill:#241f1c;stroke:#1a1a1a;stroke-width:1.875;stroke-linecap:round;stroke-linejoin:round;stroke-miterlimit:4;stroke-dasharray:none;stroke-opacity:1" />
    <path
       style="fill:#000000;stroke:#000000;stroke-width:1.00000012px;stroke-linecap:round;stroke-linejoin:round;stroke-opacity:1"
       d="m 298.55669,231.5994 c -5.16235,-3.88918 -10.61851,-5.4591 -16.96426,0 5.24579,-1.22713 10.88532,-1.27272 16.96426,0 z"
       id="path5055-9-5-2-3"
       inkscape:connector-curvature="0"
       sodipodi:nodetypes="ccc"
       inkscape:export-filename="/home/pacmiam/images/work/blog/camille.png"
       inkscape:export-xdpi="100"
       inkscape:export-ydpi="100" />
    <path
       inkscape:connector-curvature="0"
       style="fill:#ffffff;fill-opacity:1;stroke:none;stroke-width:0.46875;stroke-miterlimit:4;stroke-dasharray:none;stroke-opacity:1"
       d="m 249.74537,240.42857 a 11.866205,18.048889 0 0 0 -1.03818,7.33154 11.866205,18.048889 0 0 0 11.86528,18.04871 11.866205,18.048889 0 0 0 11.86706,-18.04871 11.866205,18.048889 0 0 0 -1.03453,-7.33154 z"
       id="path4957-4-6-3-3-0" />
    <ellipse
       ry="5.8663273"
       rx="3.6255896"
       cy="248.9462"
       cx="-268.08707"
       style="fill:#000000;fill-opacity:1;stroke:none;stroke-width:1.00000012"
       id="path4977-8-9-0-7-4"
       transform="scale(-1,1)" />
    <path
       sodipodi:nodetypes="csccccccc"
       inkscape:connector-curvature="0"
       id="path6582-92-4"
       d="m 287.94372,282.0345 c -12.59063,0 -21.36956,-2.08278 -21.36956,-9.74243 0,-8.90463 4.89393,-13.70913 14.84484,-13.70913 18.56634,0 47.15465,10.44261 68.19769,5.15291 8.49046,-2.27505 8.09343,9.06985 -0.34594,9.06985 l -39.0601,-0.32289 c 0,0 -32.82281,-2.19455 -32.82281,0.51718 0,-2.69472 32.82281,-0.51718 32.82281,-0.51718 -4.83215,8.36952 -15.47353,9.52928 -22.26693,9.55169 z"
       style="fill:#ff9955;fill-opacity:1;stroke:#c36e32;stroke-width:1.875;stroke-linecap:round;stroke-linejoin:round;stroke-miterlimit:4;stroke-dasharray:none;stroke-opacity:1"
       inkscape:export-filename="/home/pacmiam/images/work/blog/camille.png"
       inkscape:export-xdpi="100"
       inkscape:export-ydpi="100" />
    <path
       style="fill:#ffdd55;fill-opacity:1;stroke:#ffc400;stroke-width:2.00000024;stroke-linecap:round;stroke-linejoin:round;stroke-miterlimit:4;stroke-dasharray:none;stroke-opacity:1"
       d="m 252.1225,320.39958 c -16.632,14.52213 -11.13225,12.75987 -36.20409,30.06068 3.576,11.72759 5.2814,16.66646 11.69887,30.93022 6.90197,16.00251 -27.71353,15.72605 -16.35909,6.53309 -3.43932,-7.73176 -2.82357,-9.38796 -21.53963,-33.90796 -3.89869,-4.13181 -5.13366,-11.12776 -0.29803,-16.86343 14.74688,-17.49161 32.35481,-27.97872 48.63197,-41.80492"
       id="path4002-3-8-7-0-91-4"
       inkscape:connector-curvature="0"
       sodipodi:nodetypes="ccccccc" />
    <ellipse
       ry="1.7635792"
       rx="40.230732"
       cy="339.26172"
       cx="538.76257"
       id="ellipse14297"
       style="opacity:1;fill:#000000;fill-opacity:0.2;fill-rule:evenodd;stroke:none;stroke-width:0.73947376;stroke-linecap:round;stroke-linejoin:round;stroke-miterlimit:4;stroke-dasharray:none;stroke-dashoffset:0;stroke-opacity:1" />
    <path
       style="opacity:1;fill:url(#radialGradient14335);fill-opacity:1;fill-rule:evenodd;stroke:#000000;stroke-width:0.9375;stroke-linecap:round;stroke-linejoin:round;stroke-miterlimit:4;stroke-dasharray:none;stroke-dashoffset:0;stroke-opacity:1"
       d="m 548.56259,278.96556 2.97986,5.44734 c 0.17346,0.31708 0.30596,0.53041 0.46214,0.7991 -1.40344,0.8406 -2.73841,3.16888 -1.95393,4.60443 0.80758,1.4763 2.4011,1.42483 3.8774,0.61725 1.47629,-0.80758 3.12208,-2.59489 2.3145,-4.07119 -0.58854,-1.07604 -1.7649,-1.69429 -2.98494,-1.56879 -0.16557,-0.32845 -0.31377,-0.63081 -0.53127,-1.02843 l -2.70832,-4.95095 c 2.55285,0.16908 4.84799,-0.20947 6.77628,-1.36758 0.5009,-0.30083 0.69955,-0.91884 0.41913,-1.43145 l -0.47805,-0.87389 c -0.28041,-0.51261 -0.91472,-0.69188 -1.43145,-0.41913 -2.10581,1.11153 -4.48801,1.32481 -6.90158,1.43612 -0.002,10e-5 -0.004,0.004 -0.007,0.006 -1.6e-4,8e-5 -7.4e-4,-0.002 -9e-4,-0.002 -0.87414,0.47818 -0.52393,1.53747 0.16824,2.80279 z"
       id="path14299"
       inkscape:connector-curvature="0"
       sodipodi:nodetypes="csccsccscssssscccc" />
    <path
       style="opacity:1;fill:url(#radialGradient14335-4);fill-opacity:1;fill-rule:evenodd;stroke:#000000;stroke-width:0.93749994;stroke-linecap:round;stroke-linejoin:round;stroke-miterlimit:4;stroke-dasharray:none;stroke-dashoffset:0;stroke-opacity:1"
       d="m 520.7126,277.89638 c -0.0773,-0.0727 -0.17262,-0.13533 -0.28545,-0.18804 l 1.9e-4,0.003 c -0.003,-0.002 -0.005,-0.005 -0.007,-0.006 -4.9142,0.13872 -7.94803,-0.97312 -11.73306,-3.96688 -0.002,-10e-4 -0.006,-2.7e-4 -0.009,-8e-5 l 0.001,-0.002 c -0.97316,-0.21386 -1.40414,0.81398 -1.71372,2.22263 l -0.003,1.9e-4 -1.33194,6.06515 c -0.0776,0.353 -0.11789,0.59985 -0.17669,0.90502 -1.6103,-0.28843 -4.14675,0.59026 -4.49857,2.1879 -0.36119,1.64353 0.87462,2.6521 2.51815,3.01328 1.64352,0.36119 4.05921,0.0943 4.4204,-1.54921 0.26333,-1.19787 -0.21795,-2.43558 -1.22014,-3.14259 0.091,-0.35639 0.17715,-0.6832 0.27445,-1.12586 l 1.21157,-5.51182 c 3.02472,2.93998 6.84392,4.11644 10.81642,3.65861 l -2.38626,5.11224 c -0.19165,0.4107 -0.32151,0.72275 -0.46577,1.06111 -1.22559,-0.0475 -2.35998,0.64482 -2.87869,1.7562 -0.71181,1.52479 1.0449,3.20381 2.56968,3.91562 1.5248,0.7118 3.11842,0.66107 3.83023,-0.86371 0.69135,-1.48265 -0.78897,-3.72201 -2.24314,-4.47143 0.13869,-0.27814 0.25631,-0.49875 0.40921,-0.82621 l 2.62605,-5.62706 c 0.53383,-1.14351 0.817,-2.11278 0.27448,-2.61963 z"
       id="path14299-8"
       inkscape:connector-curvature="0"
       sodipodi:nodetypes="ccccccccccccccccccccccccccc" />
    <path
       sodipodi:nodetypes="ccc"
       inkscape:connector-curvature="0"
       id="path14432"
       d="m 611.87192,223.82024 c 5.07407,-2.34472 10.4786,-2.78726 17.23548,0 -4.96148,0.0378 -10.6957,-0.0184 -17.23548,0 z"
       style="fill:#000000;stroke:#000000;stroke-width:0.96700346px;stroke-linecap:round;stroke-linejoin:round;stroke-opacity:1" />
    <path
       style="fill:none;fill-rule:evenodd;stroke:#000000;stroke-width:0.9375px;stroke-linecap:round;stroke-linejoin:round;stroke-opacity:1"
       d="m 606.43543,221.58946 -0.68334,2.69801"
       id="path14434"
       inkscape:connector-curvature="0" />
    <path
       inkscape:connector-curvature="0"
       id="path14436"
       d="m 609.56068,221.58946 0.68334,2.69801"
       style="fill:none;fill-rule:evenodd;stroke:#000000;stroke-width:0.9375px;stroke-linecap:round;stroke-linejoin:round;stroke-opacity:1" />
    <path
       inkscape:connector-curvature="0"
       id="path14436-9"
       d="m 274.62177,235.33105 -1.42912,4.1067"
       style="fill:none;fill-rule:evenodd;stroke:#000000;stroke-width:0.93749994px;stroke-linecap:round;stroke-linejoin:round;stroke-opacity:1"
       sodipodi:nodetypes="cc" />
    <path
       style="fill:#000000;stroke:#000000;stroke-width:1.18749905px;stroke-linecap:round;stroke-linejoin:round;stroke-opacity:1"
       d="m 249.769,238.78518 c 6.33075,-2.83402 13.0738,-3.36891 21.50413,0 -6.19027,0.0457 -13.34467,-0.0222 -21.50413,0 z"
       id="path13595-7"
       inkscape:connector-curvature="0"
       sodipodi:nodetypes="ccc" />
    <path
       style="display:inline;opacity:1;fill:#ffdd55;fill-opacity:1;fill-rule:evenodd;stroke:#ffc400;stroke-width:0.9375;stroke-linecap:round;stroke-linejoin:round;stroke-miterlimit:4;stroke-dasharray:none;stroke-dashoffset:0;stroke-opacity:1"
       d="m 503.05705,309.25383 a 6.7187411,4.2902802 66.541059 0 0 -1.26175,7.87149 6.7187411,4.2902802 66.541059 0 0 3.49649,4.13178 6.7187411,4.2902802 66.541059 0 0 0.62859,5.37387 6.7187411,4.2902802 66.541059 0 0 6.61097,4.45501 6.7187411,4.2902802 66.541059 0 0 1.2607,-7.87102 6.7187411,4.2902802 66.541059 0 0 -3.49643,-4.13181 6.7187411,4.2902802 66.541059 0 0 -0.62865,-5.37385 6.7187411,4.2902802 66.541059 0 0 -6.60992,-4.45547 z m 1.90557,4.29097 a 2.0641916,1.0928073 66.541059 0 1 1.82415,1.4593 2.0641916,1.0928073 66.541059 0 1 -0.18064,2.32805 2.0641916,1.0928073 66.541059 0 1 -1.82374,-1.45821 2.0641916,1.0928073 66.541059 0 1 0.18023,-2.32914 z m 4.35046,10.02512 a 2.0641916,1.0928073 66.541059 0 1 1.82421,1.45929 2.0641916,1.0928073 66.541059 0 1 -0.18064,2.32807 2.0641916,1.0928073 66.541059 0 1 -1.82379,-1.45823 2.0641916,1.0928073 66.541059 0 1 0.18022,-2.32913 z"
       id="path14207"
       inkscape:connector-curvature="0" />
    <path
       style="display:inline;fill:none;fill-rule:evenodd;stroke:#000000;stroke-width:2.9285779;stroke-linecap:round;stroke-linejoin:round;stroke-miterlimit:4;stroke-dasharray:none;stroke-opacity:1"
       d="m 574.26513,285.60155 c -1.18602,-4.42622 -7.60031,-2.49293 -6.41083,1.94614 l 6.48556,24.20454"
       id="path14205"
       inkscape:connector-curvature="0"
       sodipodi:nodetypes="ccc" />
    <path
       style="display:inline;fill:none;fill-rule:evenodd;stroke:#483737;stroke-width:1.17143118;stroke-linecap:butt;stroke-linejoin:miter;stroke-miterlimit:4;stroke-dasharray:none;stroke-opacity:1"
       d="m 569.51117,297.62147 c -4.37583,3.72006 -6.30564,4.07771 -11.63612,4.7434"
       id="path14163-3"
       inkscape:connector-curvature="0"
       sodipodi:nodetypes="cc" />
    <circle
       style="display:inline;opacity:1;fill:#6c5353;fill-opacity:1;fill-rule:evenodd;stroke:#483737;stroke-width:1.17143118;stroke-linecap:round;stroke-linejoin:round;stroke-miterlimit:4;stroke-dasharray:none;stroke-dashoffset:0;stroke-opacity:1"
       id="path14161-3"
       cx="450.81433"
       cy="458.93121"
       transform="matrix(0.29267878,0.95621083,0.95621083,-0.29267878,0,0)"
       r="3.7542586" />
    <path
       sodipodi:nodetypes="cc"
       inkscape:connector-curvature="0"
       id="path14175"
       d="m 561.40475,324.59951 c -5.66914,-0.92073 -7.19241,-2.15842 -11.15448,-5.78592"
       style="display:inline;fill:none;fill-rule:evenodd;stroke:#483737;stroke-width:1.17143118;stroke-linecap:butt;stroke-linejoin:miter;stroke-miterlimit:4;stroke-dasharray:none;stroke-opacity:1" />
    <ellipse
       transform="matrix(-0.03703608,0.99931389,0.99931389,0.03703608,0,0)"
       cy="573.98309"
       cx="299.98236"
       id="ellipse14177"
       style="display:inline;opacity:1;fill:#6c5353;fill-opacity:1;fill-rule:evenodd;stroke:#483737;stroke-width:1.17143118;stroke-linecap:round;stroke-linejoin:round;stroke-miterlimit:4;stroke-dasharray:none;stroke-dashoffset:0;stroke-opacity:1"
       ry="2.4612925"
       rx="4.922585" />
    <rect
       style="display:inline;opacity:1;fill:#ffd42a;fill-opacity:1;fill-rule:evenodd;stroke:#ffc400;stroke-width:1.17143118;stroke-linecap:round;stroke-linejoin:round;stroke-miterlimit:4;stroke-dasharray:none;stroke-dashoffset:0;stroke-opacity:1"
       id="rect14219"
       width="10.037638"
       height="3.3188961"
       x="380.78607"
       y="463.09067"
       ry="1.659448"
       transform="rotate(-18.495345)" />
    <path
       style="display:inline;opacity:1;fill:url(#linearGradient14416);fill-opacity:1;fill-rule:evenodd;stroke:#808080;stroke-width:0.9375;stroke-linecap:round;stroke-linejoin:round;stroke-miterlimit:4;stroke-dasharray:none;stroke-dashoffset:0;stroke-opacity:1"
       d="m 508.69855,310.92378 51.96474,-13.92391 c 1.91939,7.1632 -5.25129,16.65193 -10.41302,21.81372 0.70438,2.62893 -21.167,8.44957 -21.86149,5.85775 -7.16699,-1.92037 -17.9496,-7.25137 -19.69023,-13.74756 z"
       id="rect14158"
       inkscape:connector-curvature="0"
       sodipodi:nodetypes="ccccc" />
    <ellipse
       style="display:inline;opacity:1;fill:#ffffff;fill-opacity:1;fill-rule:evenodd;stroke:#808080;stroke-width:0.9375;stroke-linecap:round;stroke-linejoin:round;stroke-miterlimit:4;stroke-dasharray:none;stroke-dashoffset:0;stroke-opacity:1"
       id="path14156"
       cx="437.78464"
       cy="431.93079"
       ry="1.0303086"
       rx="26.902502"
       transform="rotate(-14.999999)" />
    <path
       style="display:inline;fill:none;fill-rule:evenodd;stroke:#483737;stroke-width:1.17143118;stroke-linecap:round;stroke-linejoin:round;stroke-miterlimit:4;stroke-dasharray:none;stroke-opacity:1"
       d="m 503.05705,309.25383 c 4.37583,3.72006 6.30564,4.07771 11.63612,4.7434"
       id="path14163-3-8"
       inkscape:connector-curvature="0"
       sodipodi:nodetypes="cc" />
    <circle
       style="display:inline;opacity:1;fill:#6c5353;fill-opacity:1;fill-rule:evenodd;stroke:#483737;stroke-width:1.17143118;stroke-linecap:round;stroke-linejoin:round;stroke-miterlimit:4;stroke-dasharray:none;stroke-dashoffset:0;stroke-opacity:1"
       id="path14161-3-6"
       cx="148.82185"
       cy="-569.38898"
       transform="rotate(107.0184)"
       r="4.5245485" />
    <path
       style="display:inline;fill:none;fill-rule:evenodd;stroke:#483737;stroke-width:1.17143118;stroke-linecap:round;stroke-linejoin:round;stroke-miterlimit:4;stroke-dasharray:none;stroke-opacity:1"
       d="m 522.73821,336.21405 c 4.04437,-4.07797 4.54884,-5.97475 5.62093,-11.23855"
       id="path14163"
       inkscape:connector-curvature="0"
       sodipodi:nodetypes="cc" />
    <ellipse
       style="display:inline;opacity:1;fill:#6c5353;fill-opacity:1;fill-rule:evenodd;stroke:#483737;stroke-width:1.17143118;stroke-linecap:round;stroke-linejoin:round;stroke-miterlimit:4;stroke-dasharray:none;stroke-dashoffset:0;stroke-opacity:1"
       id="path14161"
       cx="530.75378"
       cy="320.01233"
       rx="6.0804152"
       ry="3.0402076"
       transform="rotate(1.7999237)" />
    <path
       style="display:inline;opacity:1;fill:#c83737;fill-opacity:1;fill-rule:evenodd;stroke:none;stroke-width:0.58571559;stroke-linecap:round;stroke-linejoin:round;stroke-miterlimit:4;stroke-dasharray:none;stroke-dashoffset:0;stroke-opacity:1"
       d="m 516.2968,304.44573 c -1.47407,0.26453 -2.61328,0.79112 -2.54452,1.1762 0.0695,0.38494 1.32073,0.48243 2.79474,0.21776 0.2272,-0.0407 0.45211,-0.089 0.66929,-0.14341 -0.18198,0.13062 -0.32032,0.25918 -0.4124,0.38319 -0.99618,-0.0831 -2.27825,5.8e-4 -3.58528,0.23447 -2.83914,0.50965 -3.79274,2.0607 -3.64719,2.86378 0.14497,0.80273 0.29514,1.44747 5.39989,0.53116 9.50959,-2.52199 19.11824,-4.97794 28.48027,-7.59831 -0.14022,-0.78105 -17.05173,0.87933 -20.06594,1.42038 -1.00773,0.18148 -3.49906,1.00403 -4.33225,1.29511 0.0334,-0.0572 0.0457,-0.11159 0.0369,-0.1624 -0.0695,-0.38483 -1.32003,-0.48239 -2.79369,-0.21795 z"
       id="path14221"
       inkscape:connector-curvature="0"
       sodipodi:nodetypes="cccccccccccccc" />
    <circle
       style="display:inline;opacity:1;fill:#c83737;fill-opacity:1;fill-rule:evenodd;stroke:none;stroke-width:0.58571559;stroke-linecap:round;stroke-linejoin:round;stroke-miterlimit:4;stroke-dasharray:none;stroke-dashoffset:0;stroke-opacity:1"
       id="path14228"
       cx="508.69534"
       cy="301.15601"
       r="0.9136129" />
    <circle
       r="1.3356533"
       cy="299.49655"
       cx="513.83563"
       id="circle14230"
       style="display:inline;opacity:1;fill:#c83737;fill-opacity:1;fill-rule:evenodd;stroke:none;stroke-width:0.58571559;stroke-linecap:round;stroke-linejoin:round;stroke-miterlimit:4;stroke-dasharray:none;stroke-dashoffset:0;stroke-opacity:1" />
    <circle
       style="display:inline;opacity:1;fill:#c83737;fill-opacity:1;fill-rule:evenodd;stroke:none;stroke-width:0.58571559;stroke-linecap:round;stroke-linejoin:round;stroke-miterlimit:4;stroke-dasharray:none;stroke-dashoffset:0;stroke-opacity:1"
       id="circle14232"
       cx="502.30035"
       cy="298.48468"
       r="0.63225257" />
  </g>
  <g
     inkscape:groupmode="layer"
     id="layer3"
     inkscape:label="Textes"
     style="display:inline">
    <path
       style="opacity:1;fill:#ffffff;fill-opacity:1;fill-rule:evenodd;stroke:#b3b3b3;stroke-width:0.9375;stroke-linecap:round;stroke-linejoin:round;stroke-miterlimit:4;stroke-dasharray:none;stroke-dashoffset:0;stroke-opacity:1"
       d="m 87.314611,298.62759 -3.037933,22.53758 c -27.0643,4.07341 -44.383187,12.84244 -44.419556,22.49085 2e-6,13.72082 34.41811,24.84375 76.874998,24.84375 42.45689,0 76.875,-11.12293 76.875,-24.84375 0,-13.72082 -34.41811,-24.84375 -76.875,-24.84375 -8.16121,0.0109 -16.26499,0.44169 -24.006953,1.27623 z"
       id="path13625"
       inkscape:connector-curvature="0"
       sodipodi:nodetypes="cccssccc" />
    <path
       style="opacity:1;fill:#ffffff;fill-opacity:1;fill-rule:evenodd;stroke:#b3b3b3;stroke-width:0.9375;stroke-linecap:round;stroke-linejoin:round;stroke-miterlimit:4;stroke-dasharray:none;stroke-dashoffset:0;stroke-opacity:1"
       d="m 180.52848,94.306494 a 79.466919,27.319916 0 0 0 -79.46777,27.319336 79.466919,27.319916 0 0 0 24.44274,19.66919 l -8.83117,16.92444 22.05322,-13.39966 a 79.466919,27.319916 0 0 0 41.80298,4.12536 79.466919,27.319916 0 0 0 79.46777,-27.31933 79.466919,27.319916 0 0 0 -79.46777,-27.319336 z"
       id="path13114"
       inkscape:connector-curvature="0" />
    <text
       xml:space="preserve"
       style="font-style:normal;font-variant:normal;font-weight:normal;font-stretch:normal;font-size:15px;line-height:26.25px;font-family:'Fira Sans';-inkscape-font-specification:'Fira Sans';text-align:end;writing-mode:lr-tb;text-anchor:end;opacity:1;fill:#000000;fill-opacity:1;fill-rule:evenodd;stroke:#0d2a30;stroke-width:0.1875;stroke-linecap:round;stroke-linejoin:round;stroke-miterlimit:4;stroke-dasharray:none;stroke-dashoffset:0;stroke-opacity:1"
       x="247.83549"
       y="126.71178"
       id="text10119"><tspan
         sodipodi:role="line"
         id="tspan10117"
         x="247.83549"
         y="126.71178"
         style="font-size:15px;fill:#000000;stroke-width:0.1875">Hey ! Salut Camille !</tspan></text>
    <path
       style="opacity:1;fill:#ffffff;fill-opacity:1;fill-rule:evenodd;stroke:#b3b3b3;stroke-width:1;stroke-linecap:round;stroke-linejoin:round;stroke-miterlimit:4;stroke-dasharray:none;stroke-dashoffset:0;stroke-opacity:1"
       d="M 614.29883,66.681641 C 525.16223,66.681747 452.9028,88.314542 452.90234,115 c 4.6e-4,26.68546 72.25989,48.31825 161.39649,48.31836 9.15197,-8.7e-4 18.28711,-0.23479 27.30664,-0.69922 -1.78205,8.39319 -1.8186,16.96092 -0.2811,25.68606 2.67669,-10.5204 7.88601,-19.55102 16.20493,-26.75247 C 727.3679,155.73998 775.6949,136.70105 775.69531,115 775.69485,88.314543 703.43543,66.681748 614.29883,66.681641 Z"
       id="path13630"
       transform="scale(0.93750002)"
       inkscape:connector-curvature="0"
       sodipodi:nodetypes="cccccccc" />
    <text
       xml:space="preserve"
       style="font-style:normal;font-variant:normal;font-weight:normal;font-stretch:normal;font-size:15px;line-height:26.25px;font-family:'Fira Sans';-inkscape-font-specification:'Fira Sans';text-align:center;writing-mode:lr-tb;text-anchor:middle;opacity:1;fill:#000000;fill-opacity:1;fill-rule:evenodd;stroke:none;stroke-width:1.875;stroke-linecap:round;stroke-linejoin:round;stroke-miterlimit:4;stroke-dasharray:none;stroke-dashoffset:0;stroke-opacity:1"
       x="574.75159"
       y="101.78123"
       id="text13609"><tspan
         sodipodi:role="line"
         id="tspan13607"
         x="574.75159"
         y="101.78123"
         style="text-align:center;text-anchor:middle;fill:#000000;stroke:none;stroke-width:1.875">J'ai demandé un potage aux tomates</tspan><tspan
         sodipodi:role="line"
         x="574.75159"
         y="128.03122"
         style="text-align:center;text-anchor:middle;fill:#000000;stroke:none;stroke-width:1.875"
         id="tspan13611">au robot. Il m'a prit aux mots ...</tspan></text>
    <text
       xml:space="preserve"
       style="font-style:normal;font-variant:normal;font-weight:normal;font-stretch:normal;font-size:15px;line-height:26.25px;font-family:'Fira Sans';-inkscape-font-specification:'Fira Sans';text-align:center;writing-mode:lr-tb;text-anchor:middle;opacity:1;fill:#000000;fill-opacity:1;fill-rule:evenodd;stroke:none;stroke-width:1.875;stroke-linecap:round;stroke-linejoin:round;stroke-miterlimit:4;stroke-dasharray:none;stroke-dashoffset:0;stroke-opacity:1"
       x="116.48438"
       y="348.8125"
       id="text13623"><tspan
         sodipodi:role="line"
         id="tspan13621"
         x="116.48438"
         y="348.8125"
         style="stroke-width:1.875">Comment ça va ?</tspan></text>
    <text
       xml:space="preserve"
       style="font-style:normal;font-variant:normal;font-weight:normal;font-stretch:normal;font-size:7.5px;line-height:22.7125988px;font-family:'Fira Sans';-inkscape-font-specification:'Fira Sans';text-align:center;writing-mode:lr-tb;text-anchor:middle;opacity:1;fill:#666666;fill-opacity:1;fill-rule:evenodd;stroke:none;stroke-width:0.9375;stroke-linecap:round;stroke-linejoin:round;stroke-miterlimit:4;stroke-dasharray:none;stroke-dashoffset:0;stroke-opacity:1"
       x="506.28787"
       y="205.04758"
       id="text14492"><tspan
         sodipodi:role="line"
         id="tspan14490"
         x="506.28787"
         y="205.04758"
         style="font-style:normal;font-variant:normal;font-weight:normal;font-stretch:normal;font-family:'Fira Sans';-inkscape-font-specification:'Fira Sans';stroke-width:0.9375">Hi</tspan></text>
    <text
       id="text14496"
       y="212.05017"
       x="515.85809"
       style="font-style:normal;font-variant:normal;font-weight:normal;font-stretch:normal;font-size:7.5px;line-height:22.7125988px;font-family:'Fira Sans';-inkscape-font-specification:'Fira Sans';text-align:center;writing-mode:lr-tb;text-anchor:middle;opacity:1;fill:#666666;fill-opacity:1;fill-rule:evenodd;stroke:none;stroke-width:0.9375;stroke-linecap:round;stroke-linejoin:round;stroke-miterlimit:4;stroke-dasharray:none;stroke-dashoffset:0;stroke-opacity:1"
       xml:space="preserve"><tspan
         style="font-style:normal;font-variant:normal;font-weight:normal;font-stretch:normal;font-family:'Fira Sans';-inkscape-font-specification:'Fira Sans';stroke-width:0.9375"
         y="212.05017"
         x="515.85809"
         id="tspan14494"
         sodipodi:role="line">Hi</tspan></text>
    <text
       xml:space="preserve"
       style="font-style:normal;font-variant:normal;font-weight:normal;font-stretch:normal;font-size:7.5px;line-height:22.7125988px;font-family:'Fira Sans';-inkscape-font-specification:'Fira Sans';text-align:center;writing-mode:lr-tb;text-anchor:middle;opacity:1;fill:#666666;fill-opacity:1;fill-rule:evenodd;stroke:none;stroke-width:0.9375;stroke-linecap:round;stroke-linejoin:round;stroke-miterlimit:4;stroke-dasharray:none;stroke-dashoffset:0;stroke-opacity:1"
       x="501.03592"
       y="220.33659"
       id="text14500"><tspan
         sodipodi:role="line"
         id="tspan14498"
         x="501.03592"
         y="220.33659"
         style="font-style:normal;font-variant:normal;font-weight:normal;font-stretch:normal;font-family:'Fira Sans';-inkscape-font-specification:'Fira Sans';stroke-width:0.9375">Hi</tspan></text>
    <text
       xml:space="preserve"
       style="font-style:normal;font-variant:normal;font-weight:normal;font-stretch:normal;font-size:7.5px;line-height:22.7125988px;font-family:'Fira Mono';-inkscape-font-specification:'Fira Mono';text-align:center;letter-spacing:-1.875px;word-spacing:0px;writing-mode:lr-tb;text-anchor:middle;opacity:1;fill:#666666;fill-opacity:1;fill-rule:evenodd;stroke:none;stroke-width:0.9375;stroke-linecap:round;stroke-linejoin:round;stroke-miterlimit:4;stroke-dasharray:none;stroke-dashoffset:0;stroke-opacity:1"
       x="704.71503"
       y="254.24538"
       id="text14488"><tspan
         sodipodi:role="line"
         id="tspan14486"
         x="704.24628"
         y="254.24538"
         style="font-style:normal;font-variant:normal;font-weight:normal;font-stretch:normal;font-size:7.5px;line-height:22.7125988px;font-family:'Fira Mono';-inkscape-font-specification:'Fira Mono';letter-spacing:-0.9375px;word-spacing:0px;fill:#666666;stroke:none;stroke-width:0.9375">BIP</tspan></text>
  </g>
</svg>
